﻿# Tiled2Unity generated file. Do not modify by hand.
# Wavefront file for 'testLevel_mesh_0002.obj'

# Vertices (Count = 3408)
v -7 -3 0
v -8 -3 0
v -8 -2 0
v -7 -2 0
v -11 -3 0
v -12 -3 0
v -12 -2 0
v -11 -2 0
v -12 -3 0
v -13 -3 0
v -13 -2 0
v -12 -2 0
v -13 -3 0
v -14 -3 0
v -14 -2 0
v -13 -2 0
v -14 -3 0
v -15 -3 0
v -15 -2 0
v -14 -2 0
v -15 -3 0
v -16 -3 0
v -16 -2 0
v -15 -2 0
v -16 -3 0
v -17 -3 0
v -17 -2 0
v -16 -2 0
v -17 -3 0
v -18 -3 0
v -18 -2 0
v -17 -2 0
v -18 -3 0
v -19 -3 0
v -19 -2 0
v -18 -2 0
v -19 -3 0
v -20 -3 0
v -20 -2 0
v -19 -2 0
v -20 -3 0
v -21 -3 0
v -21 -2 0
v -20 -2 0
v -21 -3 0
v -22 -3 0
v -22 -2 0
v -21 -2 0
v -22 -3 0
v -23 -3 0
v -23 -2 0
v -22 -2 0
v -23 -3 0
v -24 -3 0
v -24 -2 0
v -23 -2 0
v -24 -3 0
v -25 -3 0
v -25 -2 0
v -24 -2 0
v -25 -3 0
v -26 -3 0
v -26 -2 0
v -25 -2 0
v -26 -3 0
v -27 -3 0
v -27 -2 0
v -26 -2 0
v -27 -3 0
v -28 -3 0
v -28 -2 0
v -27 -2 0
v -28 -3 0
v -29 -3 0
v -29 -2 0
v -28 -2 0
v -29 -3 0
v -30 -3 0
v -30 -2 0
v -29 -2 0
v -30 -3 0
v -31 -3 0
v -31 -2 0
v -30 -2 0
v -31 -3 0
v -32 -3 0
v -32 -2 0
v -31 -2 0
v -32 -3 0
v -33 -3 0
v -33 -2 0
v -32 -2 0
v -33 -3 0
v -34 -3 0
v -34 -2 0
v -33 -2 0
v -34 -3 0
v -35 -3 0
v -35 -2 0
v -34 -2 0
v -35 -3 0
v -36 -3 0
v -36 -2 0
v -35 -2 0
v -36 -3 0
v -37 -3 0
v -37 -2 0
v -36 -2 0
v -37 -3 0
v -38 -3 0
v -38 -2 0
v -37 -2 0
v -38 -3 0
v -39 -3 0
v -39 -2 0
v -38 -2 0
v -39 -3 0
v -40 -3 0
v -40 -2 0
v -39 -2 0
v -40 -3 0
v -41 -3 0
v -41 -2 0
v -40 -2 0
v -41 -3 0
v -42 -3 0
v -42 -2 0
v -41 -2 0
v -42 -3 0
v -43 -3 0
v -43 -2 0
v -42 -2 0
v -43 -3 0
v -44 -3 0
v -44 -2 0
v -43 -2 0
v -44 -3 0
v -45 -3 0
v -45 -2 0
v -44 -2 0
v -45 -3 0
v -46 -3 0
v -46 -2 0
v -45 -2 0
v -46 -3 0
v -47 -3 0
v -47 -2 0
v -46 -2 0
v -47 -3 0
v -48 -3 0
v -48 -2 0
v -47 -2 0
v -48 -3 0
v -49 -3 0
v -49 -2 0
v -48 -2 0
v -49 -3 0
v -50 -3 0
v -50 -2 0
v -49 -2 0
v -50 -3 0
v -51 -3 0
v -51 -2 0
v -50 -2 0
v -51 -3 0
v -52 -3 0
v -52 -2 0
v -51 -2 0
v -52 -3 0
v -53 -3 0
v -53 -2 0
v -52 -2 0
v -53 -3 0
v -54 -3 0
v -54 -2 0
v -53 -2 0
v -54 -3 0
v -55 -3 0
v -55 -2 0
v -54 -2 0
v -55 -3 0
v -56 -3 0
v -56 -2 0
v -55 -2 0
v -56 -3 0
v -57 -3 0
v -57 -2 0
v -56 -2 0
v -57 -3 0
v -58 -3 0
v -58 -2 0
v -57 -2 0
v -58 -3 0
v -59 -3 0
v -59 -2 0
v -58 -2 0
v -59 -3 0
v -60 -3 0
v -60 -2 0
v -59 -2 0
v -60 -3 0
v -61 -3 0
v -61 -2 0
v -60 -2 0
v -61 -3 0
v -62 -3 0
v -62 -2 0
v -61 -2 0
v -62 -3 0
v -63 -3 0
v -63 -2 0
v -62 -2 0
v -63 -3 0
v -64 -3 0
v -64 -2 0
v -63 -2 0
v -64 -3 0
v -65 -3 0
v -65 -2 0
v -64 -2 0
v -65 -3 0
v -66 -3 0
v -66 -2 0
v -65 -2 0
v -66 -3 0
v -67 -3 0
v -67 -2 0
v -66 -2 0
v -67 -3 0
v -68 -3 0
v -68 -2 0
v -67 -2 0
v -68 -3 0
v -69 -3 0
v -69 -2 0
v -68 -2 0
v -69 -3 0
v -70 -3 0
v -70 -2 0
v -69 -2 0
v -70 -3 0
v -71 -3 0
v -71 -2 0
v -70 -2 0
v -71 -3 0
v -72 -3 0
v -72 -2 0
v -71 -2 0
v -72 -3 0
v -73 -3 0
v -73 -2 0
v -72 -2 0
v -73 -3 0
v -74 -3 0
v -74 -2 0
v -73 -2 0
v -74 -3 0
v -75 -3 0
v -75 -2 0
v -74 -2 0
v -75 -3 0
v -76 -3 0
v -76 -2 0
v -75 -2 0
v -76 -3 0
v -77 -3 0
v -77 -2 0
v -76 -2 0
v -77 -3 0
v -78 -3 0
v -78 -2 0
v -77 -2 0
v -78 -3 0
v -79 -3 0
v -79 -2 0
v -78 -2 0
v -79 -3 0
v -80 -3 0
v -80 -2 0
v -79 -2 0
v -80 -3 0
v -81 -3 0
v -81 -2 0
v -80 -2 0
v -81 -3 0
v -82 -3 0
v -82 -2 0
v -81 -2 0
v -82 -3 0
v -83 -3 0
v -83 -2 0
v -82 -2 0
v -83 -3 0
v -84 -3 0
v -84 -2 0
v -83 -2 0
v -84 -3 0
v -85 -3 0
v -85 -2 0
v -84 -2 0
v -85 -3 0
v -86 -3 0
v -86 -2 0
v -85 -2 0
v -86 -3 0
v -87 -3 0
v -87 -2 0
v -86 -2 0
v -87 -3 0
v -88 -3 0
v -88 -2 0
v -87 -2 0
v -88 -3 0
v -89 -3 0
v -89 -2 0
v -88 -2 0
v -89 -3 0
v -90 -3 0
v -90 -2 0
v -89 -2 0
v -90 -3 0
v -91 -3 0
v -91 -2 0
v -90 -2 0
v -91 -3 0
v -92 -3 0
v -92 -2 0
v -91 -2 0
v -92 -3 0
v -93 -3 0
v -93 -2 0
v -92 -2 0
v -93 -3 0
v -94 -3 0
v -94 -2 0
v -93 -2 0
v -94 -3 0
v -95 -3 0
v -95 -2 0
v -94 -2 0
v -95 -3 0
v -96 -3 0
v -96 -2 0
v -95 -2 0
v -96 -3 0
v -97 -3 0
v -97 -2 0
v -96 -2 0
v -97 -3 0
v -98 -3 0
v -98 -2 0
v -97 -2 0
v -98 -3 0
v -99 -3 0
v -99 -2 0
v -98 -2 0
v -99 -3 0
v -100 -3 0
v -100 -2 0
v -99 -2 0
v -7 -4 0
v -8 -4 0
v -8 -3 0
v -7 -3 0
v -99 -4 0
v -100 -4 0
v -100 -3 0
v -99 -3 0
v -7 -5 0
v -8 -5 0
v -8 -4 0
v -7 -4 0
v -99 -5 0
v -100 -5 0
v -100 -4 0
v -99 -4 0
v -7 -6 0
v -8 -6 0
v -8 -5 0
v -7 -5 0
v -99 -6 0
v -100 -6 0
v -100 -5 0
v -99 -5 0
v -7 -7 0
v -8 -7 0
v -8 -6 0
v -7 -6 0
v -99 -7 0
v -100 -7 0
v -100 -6 0
v -99 -6 0
v -7 -8 0
v -8 -8 0
v -8 -7 0
v -7 -7 0
v -98 -8 0
v -99 -8 0
v -99 -7 0
v -98 -7 0
v -99 -8 0
v -100 -8 0
v -100 -7 0
v -99 -7 0
v -7 -9 0
v -8 -9 0
v -8 -8 0
v -7 -8 0
v -92 -9 0
v -93 -9 0
v -93 -8 0
v -92 -8 0
v -93 -9 0
v -94 -9 0
v -94 -8 0
v -93 -8 0
v -94 -9 0
v -95 -9 0
v -95 -8 0
v -94 -8 0
v -99 -9 0
v -100 -9 0
v -100 -8 0
v -99 -8 0
v -7 -10 0
v -8 -10 0
v -8 -9 0
v -7 -9 0
v -86 -10 0
v -87 -10 0
v -87 -9 0
v -86 -9 0
v -87 -10 0
v -88 -10 0
v -88 -9 0
v -87 -9 0
v -88 -10 0
v -89 -10 0
v -89 -9 0
v -88 -9 0
v -99 -10 0
v -100 -10 0
v -100 -9 0
v -99 -9 0
v -7 -11 0
v -8 -11 0
v -8 -10 0
v -7 -10 0
v -80 -11 0
v -81 -11 0
v -81 -10 0
v -80 -10 0
v -81 -11 0
v -82 -11 0
v -82 -10 0
v -81 -10 0
v -82 -11 0
v -83 -11 0
v -83 -10 0
v -82 -10 0
v -99 -11 0
v -100 -11 0
v -100 -10 0
v -99 -10 0
v -7 -12 0
v -8 -12 0
v -8 -11 0
v -7 -11 0
v -74 -12 0
v -75 -12 0
v -75 -11 0
v -74 -11 0
v -75 -12 0
v -76 -12 0
v -76 -11 0
v -75 -11 0
v -76 -12 0
v -77 -12 0
v -77 -11 0
v -76 -11 0
v -99 -12 0
v -100 -12 0
v -100 -11 0
v -99 -11 0
v -7 -13 0
v -8 -13 0
v -8 -12 0
v -7 -12 0
v -68 -13 0
v -69 -13 0
v -69 -12 0
v -68 -12 0
v -69 -13 0
v -70 -13 0
v -70 -12 0
v -69 -12 0
v -70 -13 0
v -71 -13 0
v -71 -12 0
v -70 -12 0
v -99 -13 0
v -100 -13 0
v -100 -12 0
v -99 -12 0
v -7 -14 0
v -8 -14 0
v -8 -13 0
v -7 -13 0
v -62 -14 0
v -63 -14 0
v -63 -13 0
v -62 -13 0
v -63 -14 0
v -64 -14 0
v -64 -13 0
v -63 -13 0
v -64 -14 0
v -65 -14 0
v -65 -13 0
v -64 -13 0
v -99 -14 0
v -100 -14 0
v -100 -13 0
v -99 -13 0
v -7 -15 0
v -8 -15 0
v -8 -14 0
v -7 -14 0
v -56 -15 0
v -57 -15 0
v -57 -14 0
v -56 -14 0
v -57 -15 0
v -58 -15 0
v -58 -14 0
v -57 -14 0
v -58 -15 0
v -59 -15 0
v -59 -14 0
v -58 -14 0
v -99 -15 0
v -100 -15 0
v -100 -14 0
v -99 -14 0
v -7 -16 0
v -8 -16 0
v -8 -15 0
v -7 -15 0
v -50 -16 0
v -51 -16 0
v -51 -15 0
v -50 -15 0
v -51 -16 0
v -52 -16 0
v -52 -15 0
v -51 -15 0
v -52 -16 0
v -53 -16 0
v -53 -15 0
v -52 -15 0
v -99 -16 0
v -100 -16 0
v -100 -15 0
v -99 -15 0
v -7 -17 0
v -8 -17 0
v -8 -16 0
v -7 -16 0
v -44 -17 0
v -45 -17 0
v -45 -16 0
v -44 -16 0
v -45 -17 0
v -46 -17 0
v -46 -16 0
v -45 -16 0
v -46 -17 0
v -47 -17 0
v -47 -16 0
v -46 -16 0
v -99 -17 0
v -100 -17 0
v -100 -16 0
v -99 -16 0
v -7 -18 0
v -8 -18 0
v -8 -17 0
v -7 -17 0
v -38 -18 0
v -39 -18 0
v -39 -17 0
v -38 -17 0
v -39 -18 0
v -40 -18 0
v -40 -17 0
v -39 -17 0
v -40 -18 0
v -41 -18 0
v -41 -17 0
v -40 -17 0
v -99 -18 0
v -100 -18 0
v -100 -17 0
v -99 -17 0
v -7 -19 0
v -8 -19 0
v -8 -18 0
v -7 -18 0
v -32 -19 0
v -33 -19 0
v -33 -18 0
v -32 -18 0
v -33 -19 0
v -34 -19 0
v -34 -18 0
v -33 -18 0
v -34 -19 0
v -35 -19 0
v -35 -18 0
v -34 -18 0
v -99 -19 0
v -100 -19 0
v -100 -18 0
v -99 -18 0
v -7 -20 0
v -8 -20 0
v -8 -19 0
v -7 -19 0
v -26 -20 0
v -27 -20 0
v -27 -19 0
v -26 -19 0
v -27 -20 0
v -28 -20 0
v -28 -19 0
v -27 -19 0
v -28 -20 0
v -29 -20 0
v -29 -19 0
v -28 -19 0
v -99 -20 0
v -100 -20 0
v -100 -19 0
v -99 -19 0
v -7 -21 0
v -8 -21 0
v -8 -20 0
v -7 -20 0
v -20 -21 0
v -21 -21 0
v -21 -20 0
v -20 -20 0
v -21 -21 0
v -22 -21 0
v -22 -20 0
v -21 -20 0
v -22 -21 0
v -23 -21 0
v -23 -20 0
v -22 -20 0
v -99 -21 0
v -100 -21 0
v -100 -20 0
v -99 -20 0
v -7 -22 0
v -8 -22 0
v -8 -21 0
v -7 -21 0
v -14 -22 0
v -15 -22 0
v -15 -21 0
v -14 -21 0
v -15 -22 0
v -16 -22 0
v -16 -21 0
v -15 -21 0
v -16 -22 0
v -17 -22 0
v -17 -21 0
v -16 -21 0
v -99 -22 0
v -100 -22 0
v -100 -21 0
v -99 -21 0
v -7 -23 0
v -8 -23 0
v -8 -22 0
v -7 -22 0
v -8 -23 0
v -9 -23 0
v -9 -22 0
v -8 -22 0
v -9 -23 0
v -10 -23 0
v -10 -22 0
v -9 -22 0
v -10 -23 0
v -11 -23 0
v -11 -22 0
v -10 -22 0
v -99 -23 0
v -100 -23 0
v -100 -22 0
v -99 -22 0
v -7 -24 0
v -8 -24 0
v -8 -23 0
v -7 -23 0
v -99 -24 0
v -100 -24 0
v -100 -23 0
v -99 -23 0
v -7 -25 0
v -8 -25 0
v -8 -24 0
v -7 -24 0
v -8 -25 0
v -9 -25 0
v -9 -24 0
v -8 -24 0
v -9 -25 0
v -10 -25 0
v -10 -24 0
v -9 -24 0
v -10 -25 0
v -11 -25 0
v -11 -24 0
v -10 -24 0
v -11 -25 0
v -12 -25 0
v -12 -24 0
v -11 -24 0
v -12 -25 0
v -13 -25 0
v -13 -24 0
v -12 -24 0
v -13 -25 0
v -14 -25 0
v -14 -24 0
v -13 -24 0
v -14 -25 0
v -15 -25 0
v -15 -24 0
v -14 -24 0
v -15 -25 0
v -16 -25 0
v -16 -24 0
v -15 -24 0
v -16 -25 0
v -17 -25 0
v -17 -24 0
v -16 -24 0
v -17 -25 0
v -18 -25 0
v -18 -24 0
v -17 -24 0
v -18 -25 0
v -19 -25 0
v -19 -24 0
v -18 -24 0
v -19 -25 0
v -20 -25 0
v -20 -24 0
v -19 -24 0
v -20 -25 0
v -21 -25 0
v -21 -24 0
v -20 -24 0
v -21 -25 0
v -22 -25 0
v -22 -24 0
v -21 -24 0
v -22 -25 0
v -23 -25 0
v -23 -24 0
v -22 -24 0
v -23 -25 0
v -24 -25 0
v -24 -24 0
v -23 -24 0
v -24 -25 0
v -25 -25 0
v -25 -24 0
v -24 -24 0
v -25 -25 0
v -26 -25 0
v -26 -24 0
v -25 -24 0
v -26 -25 0
v -27 -25 0
v -27 -24 0
v -26 -24 0
v -27 -25 0
v -28 -25 0
v -28 -24 0
v -27 -24 0
v -28 -25 0
v -29 -25 0
v -29 -24 0
v -28 -24 0
v -29 -25 0
v -30 -25 0
v -30 -24 0
v -29 -24 0
v -30 -25 0
v -31 -25 0
v -31 -24 0
v -30 -24 0
v -31 -25 0
v -32 -25 0
v -32 -24 0
v -31 -24 0
v -32 -25 0
v -33 -25 0
v -33 -24 0
v -32 -24 0
v -33 -25 0
v -34 -25 0
v -34 -24 0
v -33 -24 0
v -34 -25 0
v -35 -25 0
v -35 -24 0
v -34 -24 0
v -35 -25 0
v -36 -25 0
v -36 -24 0
v -35 -24 0
v -36 -25 0
v -37 -25 0
v -37 -24 0
v -36 -24 0
v -37 -25 0
v -38 -25 0
v -38 -24 0
v -37 -24 0
v -38 -25 0
v -39 -25 0
v -39 -24 0
v -38 -24 0
v -39 -25 0
v -40 -25 0
v -40 -24 0
v -39 -24 0
v -40 -25 0
v -41 -25 0
v -41 -24 0
v -40 -24 0
v -41 -25 0
v -42 -25 0
v -42 -24 0
v -41 -24 0
v -42 -25 0
v -43 -25 0
v -43 -24 0
v -42 -24 0
v -43 -25 0
v -44 -25 0
v -44 -24 0
v -43 -24 0
v -44 -25 0
v -45 -25 0
v -45 -24 0
v -44 -24 0
v -45 -25 0
v -46 -25 0
v -46 -24 0
v -45 -24 0
v -46 -25 0
v -47 -25 0
v -47 -24 0
v -46 -24 0
v -47 -25 0
v -48 -25 0
v -48 -24 0
v -47 -24 0
v -48 -25 0
v -49 -25 0
v -49 -24 0
v -48 -24 0
v -49 -25 0
v -50 -25 0
v -50 -24 0
v -49 -24 0
v -50 -25 0
v -51 -25 0
v -51 -24 0
v -50 -24 0
v -51 -25 0
v -52 -25 0
v -52 -24 0
v -51 -24 0
v -52 -25 0
v -53 -25 0
v -53 -24 0
v -52 -24 0
v -53 -25 0
v -54 -25 0
v -54 -24 0
v -53 -24 0
v -54 -25 0
v -55 -25 0
v -55 -24 0
v -54 -24 0
v -55 -25 0
v -56 -25 0
v -56 -24 0
v -55 -24 0
v -56 -25 0
v -57 -25 0
v -57 -24 0
v -56 -24 0
v -57 -25 0
v -58 -25 0
v -58 -24 0
v -57 -24 0
v -58 -25 0
v -59 -25 0
v -59 -24 0
v -58 -24 0
v -59 -25 0
v -60 -25 0
v -60 -24 0
v -59 -24 0
v -60 -25 0
v -61 -25 0
v -61 -24 0
v -60 -24 0
v -61 -25 0
v -62 -25 0
v -62 -24 0
v -61 -24 0
v -62 -25 0
v -63 -25 0
v -63 -24 0
v -62 -24 0
v -63 -25 0
v -64 -25 0
v -64 -24 0
v -63 -24 0
v -64 -25 0
v -65 -25 0
v -65 -24 0
v -64 -24 0
v -65 -25 0
v -66 -25 0
v -66 -24 0
v -65 -24 0
v -66 -25 0
v -67 -25 0
v -67 -24 0
v -66 -24 0
v -67 -25 0
v -68 -25 0
v -68 -24 0
v -67 -24 0
v -68 -25 0
v -69 -25 0
v -69 -24 0
v -68 -24 0
v -69 -25 0
v -70 -25 0
v -70 -24 0
v -69 -24 0
v -70 -25 0
v -71 -25 0
v -71 -24 0
v -70 -24 0
v -71 -25 0
v -72 -25 0
v -72 -24 0
v -71 -24 0
v -72 -25 0
v -73 -25 0
v -73 -24 0
v -72 -24 0
v -73 -25 0
v -74 -25 0
v -74 -24 0
v -73 -24 0
v -74 -25 0
v -75 -25 0
v -75 -24 0
v -74 -24 0
v -75 -25 0
v -76 -25 0
v -76 -24 0
v -75 -24 0
v -76 -25 0
v -77 -25 0
v -77 -24 0
v -76 -24 0
v -77 -25 0
v -78 -25 0
v -78 -24 0
v -77 -24 0
v -78 -25 0
v -79 -25 0
v -79 -24 0
v -78 -24 0
v -79 -25 0
v -80 -25 0
v -80 -24 0
v -79 -24 0
v -80 -25 0
v -81 -25 0
v -81 -24 0
v -80 -24 0
v -81 -25 0
v -82 -25 0
v -82 -24 0
v -81 -24 0
v -82 -25 0
v -83 -25 0
v -83 -24 0
v -82 -24 0
v -83 -25 0
v -84 -25 0
v -84 -24 0
v -83 -24 0
v -84 -25 0
v -85 -25 0
v -85 -24 0
v -84 -24 0
v -85 -25 0
v -86 -25 0
v -86 -24 0
v -85 -24 0
v -86 -25 0
v -87 -25 0
v -87 -24 0
v -86 -24 0
v -87 -25 0
v -88 -25 0
v -88 -24 0
v -87 -24 0
v -94 -25 0
v -95 -25 0
v -95 -24 0
v -94 -24 0
v -95 -25 0
v -96 -25 0
v -96 -24 0
v -95 -24 0
v -96 -25 0
v -97 -25 0
v -97 -24 0
v -96 -24 0
v -97 -25 0
v -98 -25 0
v -98 -24 0
v -97 -24 0
v -98 -25 0
v -99 -25 0
v -99 -24 0
v -98 -24 0
v -99 -25 0
v -100 -25 0
v -100 -24 0
v -99 -24 0
v -7 -26 0
v -8 -26 0
v -8 -25 0
v -7 -25 0
v -88 -26 0
v -89 -26 0
v -89 -25 0
v -88 -25 0
v -89 -26 0
v -90 -26 0
v -90 -25 0
v -89 -25 0
v -99 -26 0
v -100 -26 0
v -100 -25 0
v -99 -25 0
v -7 -27 0
v -8 -27 0
v -8 -26 0
v -7 -26 0
v -99 -27 0
v -100 -27 0
v -100 -26 0
v -99 -26 0
v -7 -28 0
v -8 -28 0
v -8 -27 0
v -7 -27 0
v -92 -28 0
v -93 -28 0
v -93 -27 0
v -92 -27 0
v -93 -28 0
v -94 -28 0
v -94 -27 0
v -93 -27 0
v -99 -28 0
v -100 -28 0
v -100 -27 0
v -99 -27 0
v -7 -29 0
v -8 -29 0
v -8 -28 0
v -7 -28 0
v -99 -29 0
v -100 -29 0
v -100 -28 0
v -99 -28 0
v -7 -30 0
v -8 -30 0
v -8 -29 0
v -7 -29 0
v -99 -30 0
v -100 -30 0
v -100 -29 0
v -99 -29 0
v -7 -31 0
v -8 -31 0
v -8 -30 0
v -7 -30 0
v -99 -31 0
v -100 -31 0
v -100 -30 0
v -99 -30 0
v -7 -32 0
v -8 -32 0
v -8 -31 0
v -7 -31 0
v -88 -32 0
v -89 -32 0
v -89 -31 0
v -88 -31 0
v -89 -32 0
v -90 -32 0
v -90 -31 0
v -89 -31 0
v -99 -32 0
v -100 -32 0
v -100 -31 0
v -99 -31 0
v -7 -33 0
v -8 -33 0
v -8 -32 0
v -7 -32 0
v -99 -33 0
v -100 -33 0
v -100 -32 0
v -99 -32 0
v -7 -34 0
v -8 -34 0
v -8 -33 0
v -7 -33 0
v -99 -34 0
v -100 -34 0
v -100 -33 0
v -99 -33 0
v -7 -35 0
v -8 -35 0
v -8 -34 0
v -7 -34 0
v -99 -35 0
v -100 -35 0
v -100 -34 0
v -99 -34 0
v -7 -36 0
v -8 -36 0
v -8 -35 0
v -7 -35 0
v -99 -36 0
v -100 -36 0
v -100 -35 0
v -99 -35 0
v -7 -37 0
v -8 -37 0
v -8 -36 0
v -7 -36 0
v -92 -37 0
v -93 -37 0
v -93 -36 0
v -92 -36 0
v -93 -37 0
v -94 -37 0
v -94 -36 0
v -93 -36 0
v -99 -37 0
v -100 -37 0
v -100 -36 0
v -99 -36 0
v -7 -38 0
v -8 -38 0
v -8 -37 0
v -7 -37 0
v -99 -38 0
v -100 -38 0
v -100 -37 0
v -99 -37 0
v -7 -39 0
v -8 -39 0
v -8 -38 0
v -7 -38 0
v -99 -39 0
v -100 -39 0
v -100 -38 0
v -99 -38 0
v -7 -40 0
v -8 -40 0
v -8 -39 0
v -7 -39 0
v -99 -40 0
v -100 -40 0
v -100 -39 0
v -99 -39 0
v -7 -41 0
v -8 -41 0
v -8 -40 0
v -7 -40 0
v -99 -41 0
v -100 -41 0
v -100 -40 0
v -99 -40 0
v -7 -42 0
v -8 -42 0
v -8 -41 0
v -7 -41 0
v -99 -42 0
v -100 -42 0
v -100 -41 0
v -99 -41 0
v -7 -43 0
v -8 -43 0
v -8 -42 0
v -7 -42 0
v -88 -43 0
v -89 -43 0
v -89 -42 0
v -88 -42 0
v -89 -43 0
v -90 -43 0
v -90 -42 0
v -89 -42 0
v -99 -43 0
v -100 -43 0
v -100 -42 0
v -99 -42 0
v -7 -44 0
v -8 -44 0
v -8 -43 0
v -7 -43 0
v -99 -44 0
v -100 -44 0
v -100 -43 0
v -99 -43 0
v -7 -45 0
v -8 -45 0
v -8 -44 0
v -7 -44 0
v -99 -45 0
v -100 -45 0
v -100 -44 0
v -99 -44 0
v -7 -46 0
v -8 -46 0
v -8 -45 0
v -7 -45 0
v -99 -46 0
v -100 -46 0
v -100 -45 0
v -99 -45 0
v -7 -47 0
v -8 -47 0
v -8 -46 0
v -7 -46 0
v -99 -47 0
v -100 -47 0
v -100 -46 0
v -99 -46 0
v -7 -48 0
v -8 -48 0
v -8 -47 0
v -7 -47 0
v -99 -48 0
v -100 -48 0
v -100 -47 0
v -99 -47 0
v -7 -49 0
v -8 -49 0
v -8 -48 0
v -7 -48 0
v -99 -49 0
v -100 -49 0
v -100 -48 0
v -99 -48 0
v -7 -50 0
v -8 -50 0
v -8 -49 0
v -7 -49 0
v -8 -50 0
v -9 -50 0
v -9 -49 0
v -8 -49 0
v -9 -50 0
v -10 -50 0
v -10 -49 0
v -9 -49 0
v -10 -50 0
v -11 -50 0
v -11 -49 0
v -10 -49 0
v -11 -50 0
v -12 -50 0
v -12 -49 0
v -11 -49 0
v -12 -50 0
v -13 -50 0
v -13 -49 0
v -12 -49 0
v -13 -50 0
v -14 -50 0
v -14 -49 0
v -13 -49 0
v -14 -50 0
v -15 -50 0
v -15 -49 0
v -14 -49 0
v -15 -50 0
v -16 -50 0
v -16 -49 0
v -15 -49 0
v -16 -50 0
v -17 -50 0
v -17 -49 0
v -16 -49 0
v -17 -50 0
v -18 -50 0
v -18 -49 0
v -17 -49 0
v -18 -50 0
v -19 -50 0
v -19 -49 0
v -18 -49 0
v -19 -50 0
v -20 -50 0
v -20 -49 0
v -19 -49 0
v -20 -50 0
v -21 -50 0
v -21 -49 0
v -20 -49 0
v -21 -50 0
v -22 -50 0
v -22 -49 0
v -21 -49 0
v -22 -50 0
v -23 -50 0
v -23 -49 0
v -22 -49 0
v -23 -50 0
v -24 -50 0
v -24 -49 0
v -23 -49 0
v -24 -50 0
v -25 -50 0
v -25 -49 0
v -24 -49 0
v -25 -50 0
v -26 -50 0
v -26 -49 0
v -25 -49 0
v -26 -50 0
v -27 -50 0
v -27 -49 0
v -26 -49 0
v -27 -50 0
v -28 -50 0
v -28 -49 0
v -27 -49 0
v -28 -50 0
v -29 -50 0
v -29 -49 0
v -28 -49 0
v -29 -50 0
v -30 -50 0
v -30 -49 0
v -29 -49 0
v -30 -50 0
v -31 -50 0
v -31 -49 0
v -30 -49 0
v -31 -50 0
v -32 -50 0
v -32 -49 0
v -31 -49 0
v -32 -50 0
v -33 -50 0
v -33 -49 0
v -32 -49 0
v -33 -50 0
v -34 -50 0
v -34 -49 0
v -33 -49 0
v -34 -50 0
v -35 -50 0
v -35 -49 0
v -34 -49 0
v -35 -50 0
v -36 -50 0
v -36 -49 0
v -35 -49 0
v -36 -50 0
v -37 -50 0
v -37 -49 0
v -36 -49 0
v -37 -50 0
v -38 -50 0
v -38 -49 0
v -37 -49 0
v -38 -50 0
v -39 -50 0
v -39 -49 0
v -38 -49 0
v -39 -50 0
v -40 -50 0
v -40 -49 0
v -39 -49 0
v -40 -50 0
v -41 -50 0
v -41 -49 0
v -40 -49 0
v -41 -50 0
v -42 -50 0
v -42 -49 0
v -41 -49 0
v -42 -50 0
v -43 -50 0
v -43 -49 0
v -42 -49 0
v -43 -50 0
v -44 -50 0
v -44 -49 0
v -43 -49 0
v -44 -50 0
v -45 -50 0
v -45 -49 0
v -44 -49 0
v -45 -50 0
v -46 -50 0
v -46 -49 0
v -45 -49 0
v -46 -50 0
v -47 -50 0
v -47 -49 0
v -46 -49 0
v -47 -50 0
v -48 -50 0
v -48 -49 0
v -47 -49 0
v -48 -50 0
v -49 -50 0
v -49 -49 0
v -48 -49 0
v -49 -50 0
v -50 -50 0
v -50 -49 0
v -49 -49 0
v -50 -50 0
v -51 -50 0
v -51 -49 0
v -50 -49 0
v -51 -50 0
v -52 -50 0
v -52 -49 0
v -51 -49 0
v -52 -50 0
v -53 -50 0
v -53 -49 0
v -52 -49 0
v -53 -50 0
v -54 -50 0
v -54 -49 0
v -53 -49 0
v -54 -50 0
v -55 -50 0
v -55 -49 0
v -54 -49 0
v -55 -50 0
v -56 -50 0
v -56 -49 0
v -55 -49 0
v -56 -50 0
v -57 -50 0
v -57 -49 0
v -56 -49 0
v -57 -50 0
v -58 -50 0
v -58 -49 0
v -57 -49 0
v -58 -50 0
v -59 -50 0
v -59 -49 0
v -58 -49 0
v -59 -50 0
v -60 -50 0
v -60 -49 0
v -59 -49 0
v -60 -50 0
v -61 -50 0
v -61 -49 0
v -60 -49 0
v -61 -50 0
v -62 -50 0
v -62 -49 0
v -61 -49 0
v -62 -50 0
v -63 -50 0
v -63 -49 0
v -62 -49 0
v -63 -50 0
v -64 -50 0
v -64 -49 0
v -63 -49 0
v -64 -50 0
v -65 -50 0
v -65 -49 0
v -64 -49 0
v -65 -50 0
v -66 -50 0
v -66 -49 0
v -65 -49 0
v -66 -50 0
v -67 -50 0
v -67 -49 0
v -66 -49 0
v -67 -50 0
v -68 -50 0
v -68 -49 0
v -67 -49 0
v -68 -50 0
v -69 -50 0
v -69 -49 0
v -68 -49 0
v -69 -50 0
v -70 -50 0
v -70 -49 0
v -69 -49 0
v -70 -50 0
v -71 -50 0
v -71 -49 0
v -70 -49 0
v -71 -50 0
v -72 -50 0
v -72 -49 0
v -71 -49 0
v -72 -50 0
v -73 -50 0
v -73 -49 0
v -72 -49 0
v -73 -50 0
v -74 -50 0
v -74 -49 0
v -73 -49 0
v -74 -50 0
v -75 -50 0
v -75 -49 0
v -74 -49 0
v -75 -50 0
v -76 -50 0
v -76 -49 0
v -75 -49 0
v -76 -50 0
v -77 -50 0
v -77 -49 0
v -76 -49 0
v -77 -50 0
v -78 -50 0
v -78 -49 0
v -77 -49 0
v -78 -50 0
v -79 -50 0
v -79 -49 0
v -78 -49 0
v -79 -50 0
v -80 -50 0
v -80 -49 0
v -79 -49 0
v -80 -50 0
v -81 -50 0
v -81 -49 0
v -80 -49 0
v -81 -50 0
v -82 -50 0
v -82 -49 0
v -81 -49 0
v -82 -50 0
v -83 -50 0
v -83 -49 0
v -82 -49 0
v -83 -50 0
v -84 -50 0
v -84 -49 0
v -83 -49 0
v -84 -50 0
v -85 -50 0
v -85 -49 0
v -84 -49 0
v -85 -50 0
v -86 -50 0
v -86 -49 0
v -85 -49 0
v -92 -50 0
v -93 -50 0
v -93 -49 0
v -92 -49 0
v -93 -50 0
v -94 -50 0
v -94 -49 0
v -93 -49 0
v -99 -50 0
v -100 -50 0
v -100 -49 0
v -99 -49 0
v -7 -51 0
v -8 -51 0
v -8 -50 0
v -7 -50 0
v -99 -51 0
v -100 -51 0
v -100 -50 0
v -99 -50 0
v -7 -52 0
v -8 -52 0
v -8 -51 0
v -7 -51 0
v -99 -52 0
v -100 -52 0
v -100 -51 0
v -99 -51 0
v -7 -53 0
v -8 -53 0
v -8 -52 0
v -7 -52 0
v -99 -53 0
v -100 -53 0
v -100 -52 0
v -99 -52 0
v -7 -54 0
v -8 -54 0
v -8 -53 0
v -7 -53 0
v -99 -54 0
v -100 -54 0
v -100 -53 0
v -99 -53 0
v -7 -55 0
v -8 -55 0
v -8 -54 0
v -7 -54 0
v -99 -55 0
v -100 -55 0
v -100 -54 0
v -99 -54 0
v -7 -56 0
v -8 -56 0
v -8 -55 0
v -7 -55 0
v -99 -56 0
v -100 -56 0
v -100 -55 0
v -99 -55 0
v -7 -57 0
v -8 -57 0
v -8 -56 0
v -7 -56 0
v -8 -57 0
v -9 -57 0
v -9 -56 0
v -8 -56 0
v -9 -57 0
v -10 -57 0
v -10 -56 0
v -9 -56 0
v -10 -57 0
v -11 -57 0
v -11 -56 0
v -10 -56 0
v -99 -57 0
v -100 -57 0
v -100 -56 0
v -99 -56 0
v -7 -58 0
v -8 -58 0
v -8 -57 0
v -7 -57 0
v -8 -58 0
v -9 -58 0
v -9 -57 0
v -8 -57 0
v -9 -58 0
v -10 -58 0
v -10 -57 0
v -9 -57 0
v -10 -58 0
v -11 -58 0
v -11 -57 0
v -10 -57 0
v -18 -58 0
v -19 -58 0
v -19 -57 0
v -18 -57 0
v -19 -58 0
v -20 -58 0
v -20 -57 0
v -19 -57 0
v -20 -58 0
v -21 -58 0
v -21 -57 0
v -20 -57 0
v -48 -58 0
v -49 -58 0
v -49 -57 0
v -48 -57 0
v -49 -58 0
v -50 -58 0
v -50 -57 0
v -49 -57 0
v -69 -58 0
v -70 -58 0
v -70 -57 0
v -69 -57 0
v -88 -58 0
v -89 -58 0
v -89 -57 0
v -88 -57 0
v -89 -58 0
v -90 -58 0
v -90 -57 0
v -89 -57 0
v -99 -58 0
v -100 -58 0
v -100 -57 0
v -99 -57 0
v -7 -59 0
v -8 -59 0
v -8 -58 0
v -7 -58 0
v -8 -59 0
v -9 -59 0
v -9 -58 0
v -8 -58 0
v -9 -59 0
v -10 -59 0
v -10 -58 0
v -9 -58 0
v -10 -59 0
v -11 -59 0
v -11 -58 0
v -10 -58 0
v -11 -59 0
v -12 -59 0
v -12 -58 0
v -11 -58 0
v -18 -59 0
v -19 -59 0
v -19 -58 0
v -18 -58 0
v -19 -59 0
v -20 -59 0
v -20 -58 0
v -19 -58 0
v -20 -59 0
v -21 -59 0
v -21 -58 0
v -20 -58 0
v -21 -59 0
v -22 -59 0
v -22 -58 0
v -21 -58 0
v -22 -59 0
v -23 -59 0
v -23 -58 0
v -22 -58 0
v -23 -59 0
v -24 -59 0
v -24 -58 0
v -23 -58 0
v -48 -59 0
v -49 -59 0
v -49 -58 0
v -48 -58 0
v -49 -59 0
v -50 -59 0
v -50 -58 0
v -49 -58 0
v -50 -59 0
v -51 -59 0
v -51 -58 0
v -50 -58 0
v -51 -59 0
v -52 -59 0
v -52 -58 0
v -51 -58 0
v -69 -59 0
v -70 -59 0
v -70 -58 0
v -69 -58 0
v -70 -59 0
v -71 -59 0
v -71 -58 0
v -70 -58 0
v -99 -59 0
v -100 -59 0
v -100 -58 0
v -99 -58 0
v -7 -60 0
v -8 -60 0
v -8 -59 0
v -7 -59 0
v -8 -60 0
v -9 -60 0
v -9 -59 0
v -8 -59 0
v -9 -60 0
v -10 -60 0
v -10 -59 0
v -9 -59 0
v -10 -60 0
v -11 -60 0
v -11 -59 0
v -10 -59 0
v -11 -60 0
v -12 -60 0
v -12 -59 0
v -11 -59 0
v -18 -60 0
v -19 -60 0
v -19 -59 0
v -18 -59 0
v -19 -60 0
v -20 -60 0
v -20 -59 0
v -19 -59 0
v -20 -60 0
v -21 -60 0
v -21 -59 0
v -20 -59 0
v -21 -60 0
v -22 -60 0
v -22 -59 0
v -21 -59 0
v -22 -60 0
v -23 -60 0
v -23 -59 0
v -22 -59 0
v -23 -60 0
v -24 -60 0
v -24 -59 0
v -23 -59 0
v -24 -60 0
v -25 -60 0
v -25 -59 0
v -24 -59 0
v -25 -60 0
v -26 -60 0
v -26 -59 0
v -25 -59 0
v -26 -60 0
v -27 -60 0
v -27 -59 0
v -26 -59 0
v -48 -60 0
v -49 -60 0
v -49 -59 0
v -48 -59 0
v -49 -60 0
v -50 -60 0
v -50 -59 0
v -49 -59 0
v -50 -60 0
v -51 -60 0
v -51 -59 0
v -50 -59 0
v -51 -60 0
v -52 -60 0
v -52 -59 0
v -51 -59 0
v -52 -60 0
v -53 -60 0
v -53 -59 0
v -52 -59 0
v -53 -60 0
v -54 -60 0
v -54 -59 0
v -53 -59 0
v -69 -60 0
v -70 -60 0
v -70 -59 0
v -69 -59 0
v -70 -60 0
v -71 -60 0
v -71 -59 0
v -70 -59 0
v -71 -60 0
v -72 -60 0
v -72 -59 0
v -71 -59 0
v -99 -60 0
v -100 -60 0
v -100 -59 0
v -99 -59 0
v -7 -61 0
v -8 -61 0
v -8 -60 0
v -7 -60 0
v -8 -61 0
v -9 -61 0
v -9 -60 0
v -8 -60 0
v -9 -61 0
v -10 -61 0
v -10 -60 0
v -9 -60 0
v -10 -61 0
v -11 -61 0
v -11 -60 0
v -10 -60 0
v -11 -61 0
v -12 -61 0
v -12 -60 0
v -11 -60 0
v -12 -61 0
v -13 -61 0
v -13 -60 0
v -12 -60 0
v -18 -61 0
v -19 -61 0
v -19 -60 0
v -18 -60 0
v -19 -61 0
v -20 -61 0
v -20 -60 0
v -19 -60 0
v -20 -61 0
v -21 -61 0
v -21 -60 0
v -20 -60 0
v -21 -61 0
v -22 -61 0
v -22 -60 0
v -21 -60 0
v -22 -61 0
v -23 -61 0
v -23 -60 0
v -22 -60 0
v -23 -61 0
v -24 -61 0
v -24 -60 0
v -23 -60 0
v -24 -61 0
v -25 -61 0
v -25 -60 0
v -24 -60 0
v -25 -61 0
v -26 -61 0
v -26 -60 0
v -25 -60 0
v -26 -61 0
v -27 -61 0
v -27 -60 0
v -26 -60 0
v -27 -61 0
v -28 -61 0
v -28 -60 0
v -27 -60 0
v -28 -61 0
v -29 -61 0
v -29 -60 0
v -28 -60 0
v -29 -61 0
v -30 -61 0
v -30 -60 0
v -29 -60 0
v -48 -61 0
v -49 -61 0
v -49 -60 0
v -48 -60 0
v -49 -61 0
v -50 -61 0
v -50 -60 0
v -49 -60 0
v -50 -61 0
v -51 -61 0
v -51 -60 0
v -50 -60 0
v -51 -61 0
v -52 -61 0
v -52 -60 0
v -51 -60 0
v -52 -61 0
v -53 -61 0
v -53 -60 0
v -52 -60 0
v -53 -61 0
v -54 -61 0
v -54 -60 0
v -53 -60 0
v -54 -61 0
v -55 -61 0
v -55 -60 0
v -54 -60 0
v -55 -61 0
v -56 -61 0
v -56 -60 0
v -55 -60 0
v -69 -61 0
v -70 -61 0
v -70 -60 0
v -69 -60 0
v -70 -61 0
v -71 -61 0
v -71 -60 0
v -70 -60 0
v -71 -61 0
v -72 -61 0
v -72 -60 0
v -71 -60 0
v -72 -61 0
v -73 -61 0
v -73 -60 0
v -72 -60 0
v -99 -61 0
v -100 -61 0
v -100 -60 0
v -99 -60 0
v -7 -62 0
v -8 -62 0
v -8 -61 0
v -7 -61 0
v -8 -62 0
v -9 -62 0
v -9 -61 0
v -8 -61 0
v -9 -62 0
v -10 -62 0
v -10 -61 0
v -9 -61 0
v -10 -62 0
v -11 -62 0
v -11 -61 0
v -10 -61 0
v -11 -62 0
v -12 -62 0
v -12 -61 0
v -11 -61 0
v -12 -62 0
v -13 -62 0
v -13 -61 0
v -12 -61 0
v -18 -62 0
v -19 -62 0
v -19 -61 0
v -18 -61 0
v -19 -62 0
v -20 -62 0
v -20 -61 0
v -19 -61 0
v -20 -62 0
v -21 -62 0
v -21 -61 0
v -20 -61 0
v -21 -62 0
v -22 -62 0
v -22 -61 0
v -21 -61 0
v -22 -62 0
v -23 -62 0
v -23 -61 0
v -22 -61 0
v -23 -62 0
v -24 -62 0
v -24 -61 0
v -23 -61 0
v -24 -62 0
v -25 -62 0
v -25 -61 0
v -24 -61 0
v -25 -62 0
v -26 -62 0
v -26 -61 0
v -25 -61 0
v -26 -62 0
v -27 -62 0
v -27 -61 0
v -26 -61 0
v -27 -62 0
v -28 -62 0
v -28 -61 0
v -27 -61 0
v -28 -62 0
v -29 -62 0
v -29 -61 0
v -28 -61 0
v -29 -62 0
v -30 -62 0
v -30 -61 0
v -29 -61 0
v -30 -62 0
v -31 -62 0
v -31 -61 0
v -30 -61 0
v -31 -62 0
v -32 -62 0
v -32 -61 0
v -31 -61 0
v -32 -62 0
v -33 -62 0
v -33 -61 0
v -32 -61 0
v -48 -62 0
v -49 -62 0
v -49 -61 0
v -48 -61 0
v -49 -62 0
v -50 -62 0
v -50 -61 0
v -49 -61 0
v -50 -62 0
v -51 -62 0
v -51 -61 0
v -50 -61 0
v -51 -62 0
v -52 -62 0
v -52 -61 0
v -51 -61 0
v -52 -62 0
v -53 -62 0
v -53 -61 0
v -52 -61 0
v -53 -62 0
v -54 -62 0
v -54 -61 0
v -53 -61 0
v -54 -62 0
v -55 -62 0
v -55 -61 0
v -54 -61 0
v -55 -62 0
v -56 -62 0
v -56 -61 0
v -55 -61 0
v -56 -62 0
v -57 -62 0
v -57 -61 0
v -56 -61 0
v -57 -62 0
v -58 -62 0
v -58 -61 0
v -57 -61 0
v -69 -62 0
v -70 -62 0
v -70 -61 0
v -69 -61 0
v -70 -62 0
v -71 -62 0
v -71 -61 0
v -70 -61 0
v -71 -62 0
v -72 -62 0
v -72 -61 0
v -71 -61 0
v -72 -62 0
v -73 -62 0
v -73 -61 0
v -72 -61 0
v -73 -62 0
v -74 -62 0
v -74 -61 0
v -73 -61 0
v -99 -62 0
v -100 -62 0
v -100 -61 0
v -99 -61 0
v -7 -63 0
v -8 -63 0
v -8 -62 0
v -7 -62 0
v -8 -63 0
v -9 -63 0
v -9 -62 0
v -8 -62 0
v -9 -63 0
v -10 -63 0
v -10 -62 0
v -9 -62 0
v -10 -63 0
v -11 -63 0
v -11 -62 0
v -10 -62 0
v -11 -63 0
v -12 -63 0
v -12 -62 0
v -11 -62 0
v -12 -63 0
v -13 -63 0
v -13 -62 0
v -12 -62 0
v -13 -63 0
v -14 -63 0
v -14 -62 0
v -13 -62 0
v -18 -63 0
v -19 -63 0
v -19 -62 0
v -18 -62 0
v -19 -63 0
v -20 -63 0
v -20 -62 0
v -19 -62 0
v -20 -63 0
v -21 -63 0
v -21 -62 0
v -20 -62 0
v -21 -63 0
v -22 -63 0
v -22 -62 0
v -21 -62 0
v -22 -63 0
v -23 -63 0
v -23 -62 0
v -22 -62 0
v -23 -63 0
v -24 -63 0
v -24 -62 0
v -23 -62 0
v -24 -63 0
v -25 -63 0
v -25 -62 0
v -24 -62 0
v -25 -63 0
v -26 -63 0
v -26 -62 0
v -25 -62 0
v -26 -63 0
v -27 -63 0
v -27 -62 0
v -26 -62 0
v -27 -63 0
v -28 -63 0
v -28 -62 0
v -27 -62 0
v -28 -63 0
v -29 -63 0
v -29 -62 0
v -28 -62 0
v -29 -63 0
v -30 -63 0
v -30 -62 0
v -29 -62 0
v -30 -63 0
v -31 -63 0
v -31 -62 0
v -30 -62 0
v -31 -63 0
v -32 -63 0
v -32 -62 0
v -31 -62 0
v -32 -63 0
v -33 -63 0
v -33 -62 0
v -32 -62 0
v -33 -63 0
v -34 -63 0
v -34 -62 0
v -33 -62 0
v -34 -63 0
v -35 -63 0
v -35 -62 0
v -34 -62 0
v -35 -63 0
v -36 -63 0
v -36 -62 0
v -35 -62 0
v -48 -63 0
v -49 -63 0
v -49 -62 0
v -48 -62 0
v -49 -63 0
v -50 -63 0
v -50 -62 0
v -49 -62 0
v -50 -63 0
v -51 -63 0
v -51 -62 0
v -50 -62 0
v -51 -63 0
v -52 -63 0
v -52 -62 0
v -51 -62 0
v -52 -63 0
v -53 -63 0
v -53 -62 0
v -52 -62 0
v -53 -63 0
v -54 -63 0
v -54 -62 0
v -53 -62 0
v -54 -63 0
v -55 -63 0
v -55 -62 0
v -54 -62 0
v -55 -63 0
v -56 -63 0
v -56 -62 0
v -55 -62 0
v -56 -63 0
v -57 -63 0
v -57 -62 0
v -56 -62 0
v -57 -63 0
v -58 -63 0
v -58 -62 0
v -57 -62 0
v -58 -63 0
v -59 -63 0
v -59 -62 0
v -58 -62 0
v -59 -63 0
v -60 -63 0
v -60 -62 0
v -59 -62 0
v -69 -63 0
v -70 -63 0
v -70 -62 0
v -69 -62 0
v -70 -63 0
v -71 -63 0
v -71 -62 0
v -70 -62 0
v -71 -63 0
v -72 -63 0
v -72 -62 0
v -71 -62 0
v -72 -63 0
v -73 -63 0
v -73 -62 0
v -72 -62 0
v -73 -63 0
v -74 -63 0
v -74 -62 0
v -73 -62 0
v -74 -63 0
v -75 -63 0
v -75 -62 0
v -74 -62 0
v -99 -63 0
v -100 -63 0
v -100 -62 0
v -99 -62 0
v -7 -64 0
v -8 -64 0
v -8 -63 0
v -7 -63 0
v -8 -64 0
v -9 -64 0
v -9 -63 0
v -8 -63 0
v -9 -64 0
v -10 -64 0
v -10 -63 0
v -9 -63 0
v -10 -64 0
v -11 -64 0
v -11 -63 0
v -10 -63 0
v -11 -64 0
v -12 -64 0
v -12 -63 0
v -11 -63 0
v -12 -64 0
v -13 -64 0
v -13 -63 0
v -12 -63 0
v -13 -64 0
v -14 -64 0
v -14 -63 0
v -13 -63 0
v -18 -64 0
v -19 -64 0
v -19 -63 0
v -18 -63 0
v -19 -64 0
v -20 -64 0
v -20 -63 0
v -19 -63 0
v -20 -64 0
v -21 -64 0
v -21 -63 0
v -20 -63 0
v -21 -64 0
v -22 -64 0
v -22 -63 0
v -21 -63 0
v -22 -64 0
v -23 -64 0
v -23 -63 0
v -22 -63 0
v -23 -64 0
v -24 -64 0
v -24 -63 0
v -23 -63 0
v -24 -64 0
v -25 -64 0
v -25 -63 0
v -24 -63 0
v -25 -64 0
v -26 -64 0
v -26 -63 0
v -25 -63 0
v -26 -64 0
v -27 -64 0
v -27 -63 0
v -26 -63 0
v -27 -64 0
v -28 -64 0
v -28 -63 0
v -27 -63 0
v -28 -64 0
v -29 -64 0
v -29 -63 0
v -28 -63 0
v -29 -64 0
v -30 -64 0
v -30 -63 0
v -29 -63 0
v -30 -64 0
v -31 -64 0
v -31 -63 0
v -30 -63 0
v -31 -64 0
v -32 -64 0
v -32 -63 0
v -31 -63 0
v -32 -64 0
v -33 -64 0
v -33 -63 0
v -32 -63 0
v -33 -64 0
v -34 -64 0
v -34 -63 0
v -33 -63 0
v -34 -64 0
v -35 -64 0
v -35 -63 0
v -34 -63 0
v -35 -64 0
v -36 -64 0
v -36 -63 0
v -35 -63 0
v -36 -64 0
v -37 -64 0
v -37 -63 0
v -36 -63 0
v -37 -64 0
v -38 -64 0
v -38 -63 0
v -37 -63 0
v -38 -64 0
v -39 -64 0
v -39 -63 0
v -38 -63 0
v -48 -64 0
v -49 -64 0
v -49 -63 0
v -48 -63 0
v -49 -64 0
v -50 -64 0
v -50 -63 0
v -49 -63 0
v -50 -64 0
v -51 -64 0
v -51 -63 0
v -50 -63 0
v -51 -64 0
v -52 -64 0
v -52 -63 0
v -51 -63 0
v -52 -64 0
v -53 -64 0
v -53 -63 0
v -52 -63 0
v -53 -64 0
v -54 -64 0
v -54 -63 0
v -53 -63 0
v -54 -64 0
v -55 -64 0
v -55 -63 0
v -54 -63 0
v -55 -64 0
v -56 -64 0
v -56 -63 0
v -55 -63 0
v -56 -64 0
v -57 -64 0
v -57 -63 0
v -56 -63 0
v -57 -64 0
v -58 -64 0
v -58 -63 0
v -57 -63 0
v -58 -64 0
v -59 -64 0
v -59 -63 0
v -58 -63 0
v -59 -64 0
v -60 -64 0
v -60 -63 0
v -59 -63 0
v -60 -64 0
v -61 -64 0
v -61 -63 0
v -60 -63 0
v -61 -64 0
v -62 -64 0
v -62 -63 0
v -61 -63 0
v -69 -64 0
v -70 -64 0
v -70 -63 0
v -69 -63 0
v -70 -64 0
v -71 -64 0
v -71 -63 0
v -70 -63 0
v -71 -64 0
v -72 -64 0
v -72 -63 0
v -71 -63 0
v -72 -64 0
v -73 -64 0
v -73 -63 0
v -72 -63 0
v -73 -64 0
v -74 -64 0
v -74 -63 0
v -73 -63 0
v -74 -64 0
v -75 -64 0
v -75 -63 0
v -74 -63 0
v -75 -64 0
v -76 -64 0
v -76 -63 0
v -75 -63 0
v -99 -64 0
v -100 -64 0
v -100 -63 0
v -99 -63 0
v -7 -65 0
v -8 -65 0
v -8 -64 0
v -7 -64 0
v -8 -65 0
v -9 -65 0
v -9 -64 0
v -8 -64 0
v -9 -65 0
v -10 -65 0
v -10 -64 0
v -9 -64 0
v -10 -65 0
v -11 -65 0
v -11 -64 0
v -10 -64 0
v -11 -65 0
v -12 -65 0
v -12 -64 0
v -11 -64 0
v -12 -65 0
v -13 -65 0
v -13 -64 0
v -12 -64 0
v -13 -65 0
v -14 -65 0
v -14 -64 0
v -13 -64 0
v -14 -65 0
v -15 -65 0
v -15 -64 0
v -14 -64 0
v -18 -65 0
v -19 -65 0
v -19 -64 0
v -18 -64 0
v -19 -65 0
v -20 -65 0
v -20 -64 0
v -19 -64 0
v -20 -65 0
v -21 -65 0
v -21 -64 0
v -20 -64 0
v -21 -65 0
v -22 -65 0
v -22 -64 0
v -21 -64 0
v -22 -65 0
v -23 -65 0
v -23 -64 0
v -22 -64 0
v -23 -65 0
v -24 -65 0
v -24 -64 0
v -23 -64 0
v -24 -65 0
v -25 -65 0
v -25 -64 0
v -24 -64 0
v -25 -65 0
v -26 -65 0
v -26 -64 0
v -25 -64 0
v -26 -65 0
v -27 -65 0
v -27 -64 0
v -26 -64 0
v -27 -65 0
v -28 -65 0
v -28 -64 0
v -27 -64 0
v -28 -65 0
v -29 -65 0
v -29 -64 0
v -28 -64 0
v -29 -65 0
v -30 -65 0
v -30 -64 0
v -29 -64 0
v -30 -65 0
v -31 -65 0
v -31 -64 0
v -30 -64 0
v -31 -65 0
v -32 -65 0
v -32 -64 0
v -31 -64 0
v -32 -65 0
v -33 -65 0
v -33 -64 0
v -32 -64 0
v -33 -65 0
v -34 -65 0
v -34 -64 0
v -33 -64 0
v -34 -65 0
v -35 -65 0
v -35 -64 0
v -34 -64 0
v -35 -65 0
v -36 -65 0
v -36 -64 0
v -35 -64 0
v -36 -65 0
v -37 -65 0
v -37 -64 0
v -36 -64 0
v -37 -65 0
v -38 -65 0
v -38 -64 0
v -37 -64 0
v -38 -65 0
v -39 -65 0
v -39 -64 0
v -38 -64 0
v -39 -65 0
v -40 -65 0
v -40 -64 0
v -39 -64 0
v -40 -65 0
v -41 -65 0
v -41 -64 0
v -40 -64 0
v -41 -65 0
v -42 -65 0
v -42 -64 0
v -41 -64 0
v -48 -65 0
v -49 -65 0
v -49 -64 0
v -48 -64 0
v -49 -65 0
v -50 -65 0
v -50 -64 0
v -49 -64 0
v -50 -65 0
v -51 -65 0
v -51 -64 0
v -50 -64 0
v -51 -65 0
v -52 -65 0
v -52 -64 0
v -51 -64 0
v -52 -65 0
v -53 -65 0
v -53 -64 0
v -52 -64 0
v -53 -65 0
v -54 -65 0
v -54 -64 0
v -53 -64 0
v -54 -65 0
v -55 -65 0
v -55 -64 0
v -54 -64 0
v -55 -65 0
v -56 -65 0
v -56 -64 0
v -55 -64 0
v -56 -65 0
v -57 -65 0
v -57 -64 0
v -56 -64 0
v -57 -65 0
v -58 -65 0
v -58 -64 0
v -57 -64 0
v -58 -65 0
v -59 -65 0
v -59 -64 0
v -58 -64 0
v -59 -65 0
v -60 -65 0
v -60 -64 0
v -59 -64 0
v -60 -65 0
v -61 -65 0
v -61 -64 0
v -60 -64 0
v -61 -65 0
v -62 -65 0
v -62 -64 0
v -61 -64 0
v -62 -65 0
v -63 -65 0
v -63 -64 0
v -62 -64 0
v -63 -65 0
v -64 -65 0
v -64 -64 0
v -63 -64 0
v -69 -65 0
v -70 -65 0
v -70 -64 0
v -69 -64 0
v -70 -65 0
v -71 -65 0
v -71 -64 0
v -70 -64 0
v -71 -65 0
v -72 -65 0
v -72 -64 0
v -71 -64 0
v -72 -65 0
v -73 -65 0
v -73 -64 0
v -72 -64 0
v -73 -65 0
v -74 -65 0
v -74 -64 0
v -73 -64 0
v -74 -65 0
v -75 -65 0
v -75 -64 0
v -74 -64 0
v -75 -65 0
v -76 -65 0
v -76 -64 0
v -75 -64 0
v -76 -65 0
v -77 -65 0
v -77 -64 0
v -76 -64 0
v -99 -65 0
v -100 -65 0
v -100 -64 0
v -99 -64 0
v -7 -66 0
v -8 -66 0
v -8 -65 0
v -7 -65 0
v -8 -66 0
v -9 -66 0
v -9 -65 0
v -8 -65 0
v -9 -66 0
v -10 -66 0
v -10 -65 0
v -9 -65 0
v -10 -66 0
v -11 -66 0
v -11 -65 0
v -10 -65 0
v -11 -66 0
v -12 -66 0
v -12 -65 0
v -11 -65 0
v -12 -66 0
v -13 -66 0
v -13 -65 0
v -12 -65 0
v -13 -66 0
v -14 -66 0
v -14 -65 0
v -13 -65 0
v -14 -66 0
v -15 -66 0
v -15 -65 0
v -14 -65 0
v -18 -66 0
v -19 -66 0
v -19 -65 0
v -18 -65 0
v -19 -66 0
v -20 -66 0
v -20 -65 0
v -19 -65 0
v -20 -66 0
v -21 -66 0
v -21 -65 0
v -20 -65 0
v -21 -66 0
v -22 -66 0
v -22 -65 0
v -21 -65 0
v -22 -66 0
v -23 -66 0
v -23 -65 0
v -22 -65 0
v -23 -66 0
v -24 -66 0
v -24 -65 0
v -23 -65 0
v -24 -66 0
v -25 -66 0
v -25 -65 0
v -24 -65 0
v -25 -66 0
v -26 -66 0
v -26 -65 0
v -25 -65 0
v -26 -66 0
v -27 -66 0
v -27 -65 0
v -26 -65 0
v -27 -66 0
v -28 -66 0
v -28 -65 0
v -27 -65 0
v -28 -66 0
v -29 -66 0
v -29 -65 0
v -28 -65 0
v -29 -66 0
v -30 -66 0
v -30 -65 0
v -29 -65 0
v -30 -66 0
v -31 -66 0
v -31 -65 0
v -30 -65 0
v -31 -66 0
v -32 -66 0
v -32 -65 0
v -31 -65 0
v -32 -66 0
v -33 -66 0
v -33 -65 0
v -32 -65 0
v -33 -66 0
v -34 -66 0
v -34 -65 0
v -33 -65 0
v -34 -66 0
v -35 -66 0
v -35 -65 0
v -34 -65 0
v -35 -66 0
v -36 -66 0
v -36 -65 0
v -35 -65 0
v -36 -66 0
v -37 -66 0
v -37 -65 0
v -36 -65 0
v -37 -66 0
v -38 -66 0
v -38 -65 0
v -37 -65 0
v -38 -66 0
v -39 -66 0
v -39 -65 0
v -38 -65 0
v -39 -66 0
v -40 -66 0
v -40 -65 0
v -39 -65 0
v -40 -66 0
v -41 -66 0
v -41 -65 0
v -40 -65 0
v -41 -66 0
v -42 -66 0
v -42 -65 0
v -41 -65 0
v -42 -66 0
v -43 -66 0
v -43 -65 0
v -42 -65 0
v -43 -66 0
v -44 -66 0
v -44 -65 0
v -43 -65 0
v -44 -66 0
v -45 -66 0
v -45 -65 0
v -44 -65 0
v -48 -66 0
v -49 -66 0
v -49 -65 0
v -48 -65 0
v -49 -66 0
v -50 -66 0
v -50 -65 0
v -49 -65 0
v -50 -66 0
v -51 -66 0
v -51 -65 0
v -50 -65 0
v -51 -66 0
v -52 -66 0
v -52 -65 0
v -51 -65 0
v -52 -66 0
v -53 -66 0
v -53 -65 0
v -52 -65 0
v -53 -66 0
v -54 -66 0
v -54 -65 0
v -53 -65 0
v -54 -66 0
v -55 -66 0
v -55 -65 0
v -54 -65 0
v -55 -66 0
v -56 -66 0
v -56 -65 0
v -55 -65 0
v -56 -66 0
v -57 -66 0
v -57 -65 0
v -56 -65 0
v -57 -66 0
v -58 -66 0
v -58 -65 0
v -57 -65 0
v -58 -66 0
v -59 -66 0
v -59 -65 0
v -58 -65 0
v -59 -66 0
v -60 -66 0
v -60 -65 0
v -59 -65 0
v -60 -66 0
v -61 -66 0
v -61 -65 0
v -60 -65 0
v -61 -66 0
v -62 -66 0
v -62 -65 0
v -61 -65 0
v -62 -66 0
v -63 -66 0
v -63 -65 0
v -62 -65 0
v -63 -66 0
v -64 -66 0
v -64 -65 0
v -63 -65 0
v -64 -66 0
v -65 -66 0
v -65 -65 0
v -64 -65 0
v -65 -66 0
v -66 -66 0
v -66 -65 0
v -65 -65 0
v -69 -66 0
v -70 -66 0
v -70 -65 0
v -69 -65 0
v -70 -66 0
v -71 -66 0
v -71 -65 0
v -70 -65 0
v -71 -66 0
v -72 -66 0
v -72 -65 0
v -71 -65 0
v -72 -66 0
v -73 -66 0
v -73 -65 0
v -72 -65 0
v -73 -66 0
v -74 -66 0
v -74 -65 0
v -73 -65 0
v -74 -66 0
v -75 -66 0
v -75 -65 0
v -74 -65 0
v -75 -66 0
v -76 -66 0
v -76 -65 0
v -75 -65 0
v -76 -66 0
v -77 -66 0
v -77 -65 0
v -76 -65 0
v -77 -66 0
v -78 -66 0
v -78 -65 0
v -77 -65 0
v -99 -66 0
v -100 -66 0
v -100 -65 0
v -99 -65 0
v -7 -67 0
v -8 -67 0
v -8 -66 0
v -7 -66 0
v -8 -67 0
v -9 -67 0
v -9 -66 0
v -8 -66 0
v -9 -67 0
v -10 -67 0
v -10 -66 0
v -9 -66 0
v -10 -67 0
v -11 -67 0
v -11 -66 0
v -10 -66 0
v -11 -67 0
v -12 -67 0
v -12 -66 0
v -11 -66 0
v -12 -67 0
v -13 -67 0
v -13 -66 0
v -12 -66 0
v -13 -67 0
v -14 -67 0
v -14 -66 0
v -13 -66 0
v -14 -67 0
v -15 -67 0
v -15 -66 0
v -14 -66 0
v -15 -67 0
v -16 -67 0
v -16 -66 0
v -15 -66 0
v -16 -67 0
v -17 -67 0
v -17 -66 0
v -16 -66 0
v -17 -67 0
v -18 -67 0
v -18 -66 0
v -17 -66 0
v -18 -67 0
v -19 -67 0
v -19 -66 0
v -18 -66 0
v -19 -67 0
v -20 -67 0
v -20 -66 0
v -19 -66 0
v -20 -67 0
v -21 -67 0
v -21 -66 0
v -20 -66 0
v -21 -67 0
v -22 -67 0
v -22 -66 0
v -21 -66 0
v -22 -67 0
v -23 -67 0
v -23 -66 0
v -22 -66 0
v -23 -67 0
v -24 -67 0
v -24 -66 0
v -23 -66 0
v -24 -67 0
v -25 -67 0
v -25 -66 0
v -24 -66 0
v -25 -67 0
v -26 -67 0
v -26 -66 0
v -25 -66 0
v -26 -67 0
v -27 -67 0
v -27 -66 0
v -26 -66 0
v -27 -67 0
v -28 -67 0
v -28 -66 0
v -27 -66 0
v -28 -67 0
v -29 -67 0
v -29 -66 0
v -28 -66 0
v -29 -67 0
v -30 -67 0
v -30 -66 0
v -29 -66 0
v -30 -67 0
v -31 -67 0
v -31 -66 0
v -30 -66 0
v -31 -67 0
v -32 -67 0
v -32 -66 0
v -31 -66 0
v -32 -67 0
v -33 -67 0
v -33 -66 0
v -32 -66 0
v -33 -67 0
v -34 -67 0
v -34 -66 0
v -33 -66 0
v -34 -67 0
v -35 -67 0
v -35 -66 0
v -34 -66 0
v -35 -67 0
v -36 -67 0
v -36 -66 0
v -35 -66 0
v -36 -67 0
v -37 -67 0
v -37 -66 0
v -36 -66 0
v -37 -67 0
v -38 -67 0
v -38 -66 0
v -37 -66 0
v -38 -67 0
v -39 -67 0
v -39 -66 0
v -38 -66 0
v -39 -67 0
v -40 -67 0
v -40 -66 0
v -39 -66 0
v -40 -67 0
v -41 -67 0
v -41 -66 0
v -40 -66 0
v -41 -67 0
v -42 -67 0
v -42 -66 0
v -41 -66 0
v -42 -67 0
v -43 -67 0
v -43 -66 0
v -42 -66 0
v -43 -67 0
v -44 -67 0
v -44 -66 0
v -43 -66 0
v -44 -67 0
v -45 -67 0
v -45 -66 0
v -44 -66 0
v -45 -67 0
v -46 -67 0
v -46 -66 0
v -45 -66 0
v -46 -67 0
v -47 -67 0
v -47 -66 0
v -46 -66 0
v -47 -67 0
v -48 -67 0
v -48 -66 0
v -47 -66 0
v -48 -67 0
v -49 -67 0
v -49 -66 0
v -48 -66 0
v -49 -67 0
v -50 -67 0
v -50 -66 0
v -49 -66 0
v -50 -67 0
v -51 -67 0
v -51 -66 0
v -50 -66 0
v -51 -67 0
v -52 -67 0
v -52 -66 0
v -51 -66 0
v -52 -67 0
v -53 -67 0
v -53 -66 0
v -52 -66 0
v -53 -67 0
v -54 -67 0
v -54 -66 0
v -53 -66 0
v -54 -67 0
v -55 -67 0
v -55 -66 0
v -54 -66 0
v -55 -67 0
v -56 -67 0
v -56 -66 0
v -55 -66 0
v -56 -67 0
v -57 -67 0
v -57 -66 0
v -56 -66 0
v -57 -67 0
v -58 -67 0
v -58 -66 0
v -57 -66 0
v -58 -67 0
v -59 -67 0
v -59 -66 0
v -58 -66 0
v -59 -67 0
v -60 -67 0
v -60 -66 0
v -59 -66 0
v -60 -67 0
v -61 -67 0
v -61 -66 0
v -60 -66 0
v -61 -67 0
v -62 -67 0
v -62 -66 0
v -61 -66 0
v -62 -67 0
v -63 -67 0
v -63 -66 0
v -62 -66 0
v -63 -67 0
v -64 -67 0
v -64 -66 0
v -63 -66 0
v -64 -67 0
v -65 -67 0
v -65 -66 0
v -64 -66 0
v -65 -67 0
v -66 -67 0
v -66 -66 0
v -65 -66 0
v -66 -67 0
v -67 -67 0
v -67 -66 0
v -66 -66 0
v -67 -67 0
v -68 -67 0
v -68 -66 0
v -67 -66 0
v -68 -67 0
v -69 -67 0
v -69 -66 0
v -68 -66 0
v -69 -67 0
v -70 -67 0
v -70 -66 0
v -69 -66 0
v -70 -67 0
v -71 -67 0
v -71 -66 0
v -70 -66 0
v -71 -67 0
v -72 -67 0
v -72 -66 0
v -71 -66 0
v -72 -67 0
v -73 -67 0
v -73 -66 0
v -72 -66 0
v -73 -67 0
v -74 -67 0
v -74 -66 0
v -73 -66 0
v -74 -67 0
v -75 -67 0
v -75 -66 0
v -74 -66 0
v -75 -67 0
v -76 -67 0
v -76 -66 0
v -75 -66 0
v -76 -67 0
v -77 -67 0
v -77 -66 0
v -76 -66 0
v -77 -67 0
v -78 -67 0
v -78 -66 0
v -77 -66 0
v -78 -67 0
v -79 -67 0
v -79 -66 0
v -78 -66 0
v -79 -67 0
v -80 -67 0
v -80 -66 0
v -79 -66 0
v -80 -67 0
v -81 -67 0
v -81 -66 0
v -80 -66 0
v -81 -67 0
v -82 -67 0
v -82 -66 0
v -81 -66 0
v -82 -67 0
v -83 -67 0
v -83 -66 0
v -82 -66 0
v -83 -67 0
v -84 -67 0
v -84 -66 0
v -83 -66 0
v -84 -67 0
v -85 -67 0
v -85 -66 0
v -84 -66 0
v -85 -67 0
v -86 -67 0
v -86 -66 0
v -85 -66 0
v -86 -67 0
v -87 -67 0
v -87 -66 0
v -86 -66 0
v -87 -67 0
v -88 -67 0
v -88 -66 0
v -87 -66 0
v -88 -67 0
v -89 -67 0
v -89 -66 0
v -88 -66 0
v -89 -67 0
v -90 -67 0
v -90 -66 0
v -89 -66 0
v -90 -67 0
v -91 -67 0
v -91 -66 0
v -90 -66 0
v -91 -67 0
v -92 -67 0
v -92 -66 0
v -91 -66 0
v -92 -67 0
v -93 -67 0
v -93 -66 0
v -92 -66 0
v -93 -67 0
v -94 -67 0
v -94 -66 0
v -93 -66 0
v -94 -67 0
v -95 -67 0
v -95 -66 0
v -94 -66 0
v -95 -67 0
v -96 -67 0
v -96 -66 0
v -95 -66 0
v -96 -67 0
v -97 -67 0
v -97 -66 0
v -96 -66 0
v -97 -67 0
v -98 -67 0
v -98 -66 0
v -97 -66 0
v -98 -67 0
v -99 -67 0
v -99 -66 0
v -98 -66 0
v -99 -67 0
v -100 -67 0
v -100 -66 0
v -99 -66 0

# Texture cooridinates (Count = 4)
vt 0.3 0.7
vt 0.4 0.7
vt 0.4 0.8
vt 0.3 0.8

# Normal
vn 0 0 -1

# Mesh description
g testLevel_mesh_0002

# Faces
f 1/1/1 2/2/1 3/3/1 4/4/1
f 5/1/1 6/2/1 7/3/1 8/4/1
f 9/1/1 10/2/1 11/3/1 12/4/1
f 13/1/1 14/2/1 15/3/1 16/4/1
f 17/1/1 18/2/1 19/3/1 20/4/1
f 21/1/1 22/2/1 23/3/1 24/4/1
f 25/1/1 26/2/1 27/3/1 28/4/1
f 29/1/1 30/2/1 31/3/1 32/4/1
f 33/1/1 34/2/1 35/3/1 36/4/1
f 37/1/1 38/2/1 39/3/1 40/4/1
f 41/1/1 42/2/1 43/3/1 44/4/1
f 45/1/1 46/2/1 47/3/1 48/4/1
f 49/1/1 50/2/1 51/3/1 52/4/1
f 53/1/1 54/2/1 55/3/1 56/4/1
f 57/1/1 58/2/1 59/3/1 60/4/1
f 61/1/1 62/2/1 63/3/1 64/4/1
f 65/1/1 66/2/1 67/3/1 68/4/1
f 69/1/1 70/2/1 71/3/1 72/4/1
f 73/1/1 74/2/1 75/3/1 76/4/1
f 77/1/1 78/2/1 79/3/1 80/4/1
f 81/1/1 82/2/1 83/3/1 84/4/1
f 85/1/1 86/2/1 87/3/1 88/4/1
f 89/1/1 90/2/1 91/3/1 92/4/1
f 93/1/1 94/2/1 95/3/1 96/4/1
f 97/1/1 98/2/1 99/3/1 100/4/1
f 101/1/1 102/2/1 103/3/1 104/4/1
f 105/1/1 106/2/1 107/3/1 108/4/1
f 109/1/1 110/2/1 111/3/1 112/4/1
f 113/1/1 114/2/1 115/3/1 116/4/1
f 117/1/1 118/2/1 119/3/1 120/4/1
f 121/1/1 122/2/1 123/3/1 124/4/1
f 125/1/1 126/2/1 127/3/1 128/4/1
f 129/1/1 130/2/1 131/3/1 132/4/1
f 133/1/1 134/2/1 135/3/1 136/4/1
f 137/1/1 138/2/1 139/3/1 140/4/1
f 141/1/1 142/2/1 143/3/1 144/4/1
f 145/1/1 146/2/1 147/3/1 148/4/1
f 149/1/1 150/2/1 151/3/1 152/4/1
f 153/1/1 154/2/1 155/3/1 156/4/1
f 157/1/1 158/2/1 159/3/1 160/4/1
f 161/1/1 162/2/1 163/3/1 164/4/1
f 165/1/1 166/2/1 167/3/1 168/4/1
f 169/1/1 170/2/1 171/3/1 172/4/1
f 173/1/1 174/2/1 175/3/1 176/4/1
f 177/1/1 178/2/1 179/3/1 180/4/1
f 181/1/1 182/2/1 183/3/1 184/4/1
f 185/1/1 186/2/1 187/3/1 188/4/1
f 189/1/1 190/2/1 191/3/1 192/4/1
f 193/1/1 194/2/1 195/3/1 196/4/1
f 197/1/1 198/2/1 199/3/1 200/4/1
f 201/1/1 202/2/1 203/3/1 204/4/1
f 205/1/1 206/2/1 207/3/1 208/4/1
f 209/1/1 210/2/1 211/3/1 212/4/1
f 213/1/1 214/2/1 215/3/1 216/4/1
f 217/1/1 218/2/1 219/3/1 220/4/1
f 221/1/1 222/2/1 223/3/1 224/4/1
f 225/1/1 226/2/1 227/3/1 228/4/1
f 229/1/1 230/2/1 231/3/1 232/4/1
f 233/1/1 234/2/1 235/3/1 236/4/1
f 237/1/1 238/2/1 239/3/1 240/4/1
f 241/1/1 242/2/1 243/3/1 244/4/1
f 245/1/1 246/2/1 247/3/1 248/4/1
f 249/1/1 250/2/1 251/3/1 252/4/1
f 253/1/1 254/2/1 255/3/1 256/4/1
f 257/1/1 258/2/1 259/3/1 260/4/1
f 261/1/1 262/2/1 263/3/1 264/4/1
f 265/1/1 266/2/1 267/3/1 268/4/1
f 269/1/1 270/2/1 271/3/1 272/4/1
f 273/1/1 274/2/1 275/3/1 276/4/1
f 277/1/1 278/2/1 279/3/1 280/4/1
f 281/1/1 282/2/1 283/3/1 284/4/1
f 285/1/1 286/2/1 287/3/1 288/4/1
f 289/1/1 290/2/1 291/3/1 292/4/1
f 293/1/1 294/2/1 295/3/1 296/4/1
f 297/1/1 298/2/1 299/3/1 300/4/1
f 301/1/1 302/2/1 303/3/1 304/4/1
f 305/1/1 306/2/1 307/3/1 308/4/1
f 309/1/1 310/2/1 311/3/1 312/4/1
f 313/1/1 314/2/1 315/3/1 316/4/1
f 317/1/1 318/2/1 319/3/1 320/4/1
f 321/1/1 322/2/1 323/3/1 324/4/1
f 325/1/1 326/2/1 327/3/1 328/4/1
f 329/1/1 330/2/1 331/3/1 332/4/1
f 333/1/1 334/2/1 335/3/1 336/4/1
f 337/1/1 338/2/1 339/3/1 340/4/1
f 341/1/1 342/2/1 343/3/1 344/4/1
f 345/1/1 346/2/1 347/3/1 348/4/1
f 349/1/1 350/2/1 351/3/1 352/4/1
f 353/1/1 354/2/1 355/3/1 356/4/1
f 357/1/1 358/2/1 359/3/1 360/4/1
f 361/1/1 362/2/1 363/3/1 364/4/1
f 365/1/1 366/2/1 367/3/1 368/4/1
f 369/1/1 370/2/1 371/3/1 372/4/1
f 373/1/1 374/2/1 375/3/1 376/4/1
f 377/1/1 378/2/1 379/3/1 380/4/1
f 381/1/1 382/2/1 383/3/1 384/4/1
f 385/1/1 386/2/1 387/3/1 388/4/1
f 389/1/1 390/2/1 391/3/1 392/4/1
f 393/1/1 394/2/1 395/3/1 396/4/1
f 397/1/1 398/2/1 399/3/1 400/4/1
f 401/1/1 402/2/1 403/3/1 404/4/1
f 405/1/1 406/2/1 407/3/1 408/4/1
f 409/1/1 410/2/1 411/3/1 412/4/1
f 413/1/1 414/2/1 415/3/1 416/4/1
f 417/1/1 418/2/1 419/3/1 420/4/1
f 421/1/1 422/2/1 423/3/1 424/4/1
f 425/1/1 426/2/1 427/3/1 428/4/1
f 429/1/1 430/2/1 431/3/1 432/4/1
f 433/1/1 434/2/1 435/3/1 436/4/1
f 437/1/1 438/2/1 439/3/1 440/4/1
f 441/1/1 442/2/1 443/3/1 444/4/1
f 445/1/1 446/2/1 447/3/1 448/4/1
f 449/1/1 450/2/1 451/3/1 452/4/1
f 453/1/1 454/2/1 455/3/1 456/4/1
f 457/1/1 458/2/1 459/3/1 460/4/1
f 461/1/1 462/2/1 463/3/1 464/4/1
f 465/1/1 466/2/1 467/3/1 468/4/1
f 469/1/1 470/2/1 471/3/1 472/4/1
f 473/1/1 474/2/1 475/3/1 476/4/1
f 477/1/1 478/2/1 479/3/1 480/4/1
f 481/1/1 482/2/1 483/3/1 484/4/1
f 485/1/1 486/2/1 487/3/1 488/4/1
f 489/1/1 490/2/1 491/3/1 492/4/1
f 493/1/1 494/2/1 495/3/1 496/4/1
f 497/1/1 498/2/1 499/3/1 500/4/1
f 501/1/1 502/2/1 503/3/1 504/4/1
f 505/1/1 506/2/1 507/3/1 508/4/1
f 509/1/1 510/2/1 511/3/1 512/4/1
f 513/1/1 514/2/1 515/3/1 516/4/1
f 517/1/1 518/2/1 519/3/1 520/4/1
f 521/1/1 522/2/1 523/3/1 524/4/1
f 525/1/1 526/2/1 527/3/1 528/4/1
f 529/1/1 530/2/1 531/3/1 532/4/1
f 533/1/1 534/2/1 535/3/1 536/4/1
f 537/1/1 538/2/1 539/3/1 540/4/1
f 541/1/1 542/2/1 543/3/1 544/4/1
f 545/1/1 546/2/1 547/3/1 548/4/1
f 549/1/1 550/2/1 551/3/1 552/4/1
f 553/1/1 554/2/1 555/3/1 556/4/1
f 557/1/1 558/2/1 559/3/1 560/4/1
f 561/1/1 562/2/1 563/3/1 564/4/1
f 565/1/1 566/2/1 567/3/1 568/4/1
f 569/1/1 570/2/1 571/3/1 572/4/1
f 573/1/1 574/2/1 575/3/1 576/4/1
f 577/1/1 578/2/1 579/3/1 580/4/1
f 581/1/1 582/2/1 583/3/1 584/4/1
f 585/1/1 586/2/1 587/3/1 588/4/1
f 589/1/1 590/2/1 591/3/1 592/4/1
f 593/1/1 594/2/1 595/3/1 596/4/1
f 597/1/1 598/2/1 599/3/1 600/4/1
f 601/1/1 602/2/1 603/3/1 604/4/1
f 605/1/1 606/2/1 607/3/1 608/4/1
f 609/1/1 610/2/1 611/3/1 612/4/1
f 613/1/1 614/2/1 615/3/1 616/4/1
f 617/1/1 618/2/1 619/3/1 620/4/1
f 621/1/1 622/2/1 623/3/1 624/4/1
f 625/1/1 626/2/1 627/3/1 628/4/1
f 629/1/1 630/2/1 631/3/1 632/4/1
f 633/1/1 634/2/1 635/3/1 636/4/1
f 637/1/1 638/2/1 639/3/1 640/4/1
f 641/1/1 642/2/1 643/3/1 644/4/1
f 645/1/1 646/2/1 647/3/1 648/4/1
f 649/1/1 650/2/1 651/3/1 652/4/1
f 653/1/1 654/2/1 655/3/1 656/4/1
f 657/1/1 658/2/1 659/3/1 660/4/1
f 661/1/1 662/2/1 663/3/1 664/4/1
f 665/1/1 666/2/1 667/3/1 668/4/1
f 669/1/1 670/2/1 671/3/1 672/4/1
f 673/1/1 674/2/1 675/3/1 676/4/1
f 677/1/1 678/2/1 679/3/1 680/4/1
f 681/1/1 682/2/1 683/3/1 684/4/1
f 685/1/1 686/2/1 687/3/1 688/4/1
f 689/1/1 690/2/1 691/3/1 692/4/1
f 693/1/1 694/2/1 695/3/1 696/4/1
f 697/1/1 698/2/1 699/3/1 700/4/1
f 701/1/1 702/2/1 703/3/1 704/4/1
f 705/1/1 706/2/1 707/3/1 708/4/1
f 709/1/1 710/2/1 711/3/1 712/4/1
f 713/1/1 714/2/1 715/3/1 716/4/1
f 717/1/1 718/2/1 719/3/1 720/4/1
f 721/1/1 722/2/1 723/3/1 724/4/1
f 725/1/1 726/2/1 727/3/1 728/4/1
f 729/1/1 730/2/1 731/3/1 732/4/1
f 733/1/1 734/2/1 735/3/1 736/4/1
f 737/1/1 738/2/1 739/3/1 740/4/1
f 741/1/1 742/2/1 743/3/1 744/4/1
f 745/1/1 746/2/1 747/3/1 748/4/1
f 749/1/1 750/2/1 751/3/1 752/4/1
f 753/1/1 754/2/1 755/3/1 756/4/1
f 757/1/1 758/2/1 759/3/1 760/4/1
f 761/1/1 762/2/1 763/3/1 764/4/1
f 765/1/1 766/2/1 767/3/1 768/4/1
f 769/1/1 770/2/1 771/3/1 772/4/1
f 773/1/1 774/2/1 775/3/1 776/4/1
f 777/1/1 778/2/1 779/3/1 780/4/1
f 781/1/1 782/2/1 783/3/1 784/4/1
f 785/1/1 786/2/1 787/3/1 788/4/1
f 789/1/1 790/2/1 791/3/1 792/4/1
f 793/1/1 794/2/1 795/3/1 796/4/1
f 797/1/1 798/2/1 799/3/1 800/4/1
f 801/1/1 802/2/1 803/3/1 804/4/1
f 805/1/1 806/2/1 807/3/1 808/4/1
f 809/1/1 810/2/1 811/3/1 812/4/1
f 813/1/1 814/2/1 815/3/1 816/4/1
f 817/1/1 818/2/1 819/3/1 820/4/1
f 821/1/1 822/2/1 823/3/1 824/4/1
f 825/1/1 826/2/1 827/3/1 828/4/1
f 829/1/1 830/2/1 831/3/1 832/4/1
f 833/1/1 834/2/1 835/3/1 836/4/1
f 837/1/1 838/2/1 839/3/1 840/4/1
f 841/1/1 842/2/1 843/3/1 844/4/1
f 845/1/1 846/2/1 847/3/1 848/4/1
f 849/1/1 850/2/1 851/3/1 852/4/1
f 853/1/1 854/2/1 855/3/1 856/4/1
f 857/1/1 858/2/1 859/3/1 860/4/1
f 861/1/1 862/2/1 863/3/1 864/4/1
f 865/1/1 866/2/1 867/3/1 868/4/1
f 869/1/1 870/2/1 871/3/1 872/4/1
f 873/1/1 874/2/1 875/3/1 876/4/1
f 877/1/1 878/2/1 879/3/1 880/4/1
f 881/1/1 882/2/1 883/3/1 884/4/1
f 885/1/1 886/2/1 887/3/1 888/4/1
f 889/1/1 890/2/1 891/3/1 892/4/1
f 893/1/1 894/2/1 895/3/1 896/4/1
f 897/1/1 898/2/1 899/3/1 900/4/1
f 901/1/1 902/2/1 903/3/1 904/4/1
f 905/1/1 906/2/1 907/3/1 908/4/1
f 909/1/1 910/2/1 911/3/1 912/4/1
f 913/1/1 914/2/1 915/3/1 916/4/1
f 917/1/1 918/2/1 919/3/1 920/4/1
f 921/1/1 922/2/1 923/3/1 924/4/1
f 925/1/1 926/2/1 927/3/1 928/4/1
f 929/1/1 930/2/1 931/3/1 932/4/1
f 933/1/1 934/2/1 935/3/1 936/4/1
f 937/1/1 938/2/1 939/3/1 940/4/1
f 941/1/1 942/2/1 943/3/1 944/4/1
f 945/1/1 946/2/1 947/3/1 948/4/1
f 949/1/1 950/2/1 951/3/1 952/4/1
f 953/1/1 954/2/1 955/3/1 956/4/1
f 957/1/1 958/2/1 959/3/1 960/4/1
f 961/1/1 962/2/1 963/3/1 964/4/1
f 965/1/1 966/2/1 967/3/1 968/4/1
f 969/1/1 970/2/1 971/3/1 972/4/1
f 973/1/1 974/2/1 975/3/1 976/4/1
f 977/1/1 978/2/1 979/3/1 980/4/1
f 981/1/1 982/2/1 983/3/1 984/4/1
f 985/1/1 986/2/1 987/3/1 988/4/1
f 989/1/1 990/2/1 991/3/1 992/4/1
f 993/1/1 994/2/1 995/3/1 996/4/1
f 997/1/1 998/2/1 999/3/1 1000/4/1
f 1001/1/1 1002/2/1 1003/3/1 1004/4/1
f 1005/1/1 1006/2/1 1007/3/1 1008/4/1
f 1009/1/1 1010/2/1 1011/3/1 1012/4/1
f 1013/1/1 1014/2/1 1015/3/1 1016/4/1
f 1017/1/1 1018/2/1 1019/3/1 1020/4/1
f 1021/1/1 1022/2/1 1023/3/1 1024/4/1
f 1025/1/1 1026/2/1 1027/3/1 1028/4/1
f 1029/1/1 1030/2/1 1031/3/1 1032/4/1
f 1033/1/1 1034/2/1 1035/3/1 1036/4/1
f 1037/1/1 1038/2/1 1039/3/1 1040/4/1
f 1041/1/1 1042/2/1 1043/3/1 1044/4/1
f 1045/1/1 1046/2/1 1047/3/1 1048/4/1
f 1049/1/1 1050/2/1 1051/3/1 1052/4/1
f 1053/1/1 1054/2/1 1055/3/1 1056/4/1
f 1057/1/1 1058/2/1 1059/3/1 1060/4/1
f 1061/1/1 1062/2/1 1063/3/1 1064/4/1
f 1065/1/1 1066/2/1 1067/3/1 1068/4/1
f 1069/1/1 1070/2/1 1071/3/1 1072/4/1
f 1073/1/1 1074/2/1 1075/3/1 1076/4/1
f 1077/1/1 1078/2/1 1079/3/1 1080/4/1
f 1081/1/1 1082/2/1 1083/3/1 1084/4/1
f 1085/1/1 1086/2/1 1087/3/1 1088/4/1
f 1089/1/1 1090/2/1 1091/3/1 1092/4/1
f 1093/1/1 1094/2/1 1095/3/1 1096/4/1
f 1097/1/1 1098/2/1 1099/3/1 1100/4/1
f 1101/1/1 1102/2/1 1103/3/1 1104/4/1
f 1105/1/1 1106/2/1 1107/3/1 1108/4/1
f 1109/1/1 1110/2/1 1111/3/1 1112/4/1
f 1113/1/1 1114/2/1 1115/3/1 1116/4/1
f 1117/1/1 1118/2/1 1119/3/1 1120/4/1
f 1121/1/1 1122/2/1 1123/3/1 1124/4/1
f 1125/1/1 1126/2/1 1127/3/1 1128/4/1
f 1129/1/1 1130/2/1 1131/3/1 1132/4/1
f 1133/1/1 1134/2/1 1135/3/1 1136/4/1
f 1137/1/1 1138/2/1 1139/3/1 1140/4/1
f 1141/1/1 1142/2/1 1143/3/1 1144/4/1
f 1145/1/1 1146/2/1 1147/3/1 1148/4/1
f 1149/1/1 1150/2/1 1151/3/1 1152/4/1
f 1153/1/1 1154/2/1 1155/3/1 1156/4/1
f 1157/1/1 1158/2/1 1159/3/1 1160/4/1
f 1161/1/1 1162/2/1 1163/3/1 1164/4/1
f 1165/1/1 1166/2/1 1167/3/1 1168/4/1
f 1169/1/1 1170/2/1 1171/3/1 1172/4/1
f 1173/1/1 1174/2/1 1175/3/1 1176/4/1
f 1177/1/1 1178/2/1 1179/3/1 1180/4/1
f 1181/1/1 1182/2/1 1183/3/1 1184/4/1
f 1185/1/1 1186/2/1 1187/3/1 1188/4/1
f 1189/1/1 1190/2/1 1191/3/1 1192/4/1
f 1193/1/1 1194/2/1 1195/3/1 1196/4/1
f 1197/1/1 1198/2/1 1199/3/1 1200/4/1
f 1201/1/1 1202/2/1 1203/3/1 1204/4/1
f 1205/1/1 1206/2/1 1207/3/1 1208/4/1
f 1209/1/1 1210/2/1 1211/3/1 1212/4/1
f 1213/1/1 1214/2/1 1215/3/1 1216/4/1
f 1217/1/1 1218/2/1 1219/3/1 1220/4/1
f 1221/1/1 1222/2/1 1223/3/1 1224/4/1
f 1225/1/1 1226/2/1 1227/3/1 1228/4/1
f 1229/1/1 1230/2/1 1231/3/1 1232/4/1
f 1233/1/1 1234/2/1 1235/3/1 1236/4/1
f 1237/1/1 1238/2/1 1239/3/1 1240/4/1
f 1241/1/1 1242/2/1 1243/3/1 1244/4/1
f 1245/1/1 1246/2/1 1247/3/1 1248/4/1
f 1249/1/1 1250/2/1 1251/3/1 1252/4/1
f 1253/1/1 1254/2/1 1255/3/1 1256/4/1
f 1257/1/1 1258/2/1 1259/3/1 1260/4/1
f 1261/1/1 1262/2/1 1263/3/1 1264/4/1
f 1265/1/1 1266/2/1 1267/3/1 1268/4/1
f 1269/1/1 1270/2/1 1271/3/1 1272/4/1
f 1273/1/1 1274/2/1 1275/3/1 1276/4/1
f 1277/1/1 1278/2/1 1279/3/1 1280/4/1
f 1281/1/1 1282/2/1 1283/3/1 1284/4/1
f 1285/1/1 1286/2/1 1287/3/1 1288/4/1
f 1289/1/1 1290/2/1 1291/3/1 1292/4/1
f 1293/1/1 1294/2/1 1295/3/1 1296/4/1
f 1297/1/1 1298/2/1 1299/3/1 1300/4/1
f 1301/1/1 1302/2/1 1303/3/1 1304/4/1
f 1305/1/1 1306/2/1 1307/3/1 1308/4/1
f 1309/1/1 1310/2/1 1311/3/1 1312/4/1
f 1313/1/1 1314/2/1 1315/3/1 1316/4/1
f 1317/1/1 1318/2/1 1319/3/1 1320/4/1
f 1321/1/1 1322/2/1 1323/3/1 1324/4/1
f 1325/1/1 1326/2/1 1327/3/1 1328/4/1
f 1329/1/1 1330/2/1 1331/3/1 1332/4/1
f 1333/1/1 1334/2/1 1335/3/1 1336/4/1
f 1337/1/1 1338/2/1 1339/3/1 1340/4/1
f 1341/1/1 1342/2/1 1343/3/1 1344/4/1
f 1345/1/1 1346/2/1 1347/3/1 1348/4/1
f 1349/1/1 1350/2/1 1351/3/1 1352/4/1
f 1353/1/1 1354/2/1 1355/3/1 1356/4/1
f 1357/1/1 1358/2/1 1359/3/1 1360/4/1
f 1361/1/1 1362/2/1 1363/3/1 1364/4/1
f 1365/1/1 1366/2/1 1367/3/1 1368/4/1
f 1369/1/1 1370/2/1 1371/3/1 1372/4/1
f 1373/1/1 1374/2/1 1375/3/1 1376/4/1
f 1377/1/1 1378/2/1 1379/3/1 1380/4/1
f 1381/1/1 1382/2/1 1383/3/1 1384/4/1
f 1385/1/1 1386/2/1 1387/3/1 1388/4/1
f 1389/1/1 1390/2/1 1391/3/1 1392/4/1
f 1393/1/1 1394/2/1 1395/3/1 1396/4/1
f 1397/1/1 1398/2/1 1399/3/1 1400/4/1
f 1401/1/1 1402/2/1 1403/3/1 1404/4/1
f 1405/1/1 1406/2/1 1407/3/1 1408/4/1
f 1409/1/1 1410/2/1 1411/3/1 1412/4/1
f 1413/1/1 1414/2/1 1415/3/1 1416/4/1
f 1417/1/1 1418/2/1 1419/3/1 1420/4/1
f 1421/1/1 1422/2/1 1423/3/1 1424/4/1
f 1425/1/1 1426/2/1 1427/3/1 1428/4/1
f 1429/1/1 1430/2/1 1431/3/1 1432/4/1
f 1433/1/1 1434/2/1 1435/3/1 1436/4/1
f 1437/1/1 1438/2/1 1439/3/1 1440/4/1
f 1441/1/1 1442/2/1 1443/3/1 1444/4/1
f 1445/1/1 1446/2/1 1447/3/1 1448/4/1
f 1449/1/1 1450/2/1 1451/3/1 1452/4/1
f 1453/1/1 1454/2/1 1455/3/1 1456/4/1
f 1457/1/1 1458/2/1 1459/3/1 1460/4/1
f 1461/1/1 1462/2/1 1463/3/1 1464/4/1
f 1465/1/1 1466/2/1 1467/3/1 1468/4/1
f 1469/1/1 1470/2/1 1471/3/1 1472/4/1
f 1473/1/1 1474/2/1 1475/3/1 1476/4/1
f 1477/1/1 1478/2/1 1479/3/1 1480/4/1
f 1481/1/1 1482/2/1 1483/3/1 1484/4/1
f 1485/1/1 1486/2/1 1487/3/1 1488/4/1
f 1489/1/1 1490/2/1 1491/3/1 1492/4/1
f 1493/1/1 1494/2/1 1495/3/1 1496/4/1
f 1497/1/1 1498/2/1 1499/3/1 1500/4/1
f 1501/1/1 1502/2/1 1503/3/1 1504/4/1
f 1505/1/1 1506/2/1 1507/3/1 1508/4/1
f 1509/1/1 1510/2/1 1511/3/1 1512/4/1
f 1513/1/1 1514/2/1 1515/3/1 1516/4/1
f 1517/1/1 1518/2/1 1519/3/1 1520/4/1
f 1521/1/1 1522/2/1 1523/3/1 1524/4/1
f 1525/1/1 1526/2/1 1527/3/1 1528/4/1
f 1529/1/1 1530/2/1 1531/3/1 1532/4/1
f 1533/1/1 1534/2/1 1535/3/1 1536/4/1
f 1537/1/1 1538/2/1 1539/3/1 1540/4/1
f 1541/1/1 1542/2/1 1543/3/1 1544/4/1
f 1545/1/1 1546/2/1 1547/3/1 1548/4/1
f 1549/1/1 1550/2/1 1551/3/1 1552/4/1
f 1553/1/1 1554/2/1 1555/3/1 1556/4/1
f 1557/1/1 1558/2/1 1559/3/1 1560/4/1
f 1561/1/1 1562/2/1 1563/3/1 1564/4/1
f 1565/1/1 1566/2/1 1567/3/1 1568/4/1
f 1569/1/1 1570/2/1 1571/3/1 1572/4/1
f 1573/1/1 1574/2/1 1575/3/1 1576/4/1
f 1577/1/1 1578/2/1 1579/3/1 1580/4/1
f 1581/1/1 1582/2/1 1583/3/1 1584/4/1
f 1585/1/1 1586/2/1 1587/3/1 1588/4/1
f 1589/1/1 1590/2/1 1591/3/1 1592/4/1
f 1593/1/1 1594/2/1 1595/3/1 1596/4/1
f 1597/1/1 1598/2/1 1599/3/1 1600/4/1
f 1601/1/1 1602/2/1 1603/3/1 1604/4/1
f 1605/1/1 1606/2/1 1607/3/1 1608/4/1
f 1609/1/1 1610/2/1 1611/3/1 1612/4/1
f 1613/1/1 1614/2/1 1615/3/1 1616/4/1
f 1617/1/1 1618/2/1 1619/3/1 1620/4/1
f 1621/1/1 1622/2/1 1623/3/1 1624/4/1
f 1625/1/1 1626/2/1 1627/3/1 1628/4/1
f 1629/1/1 1630/2/1 1631/3/1 1632/4/1
f 1633/1/1 1634/2/1 1635/3/1 1636/4/1
f 1637/1/1 1638/2/1 1639/3/1 1640/4/1
f 1641/1/1 1642/2/1 1643/3/1 1644/4/1
f 1645/1/1 1646/2/1 1647/3/1 1648/4/1
f 1649/1/1 1650/2/1 1651/3/1 1652/4/1
f 1653/1/1 1654/2/1 1655/3/1 1656/4/1
f 1657/1/1 1658/2/1 1659/3/1 1660/4/1
f 1661/1/1 1662/2/1 1663/3/1 1664/4/1
f 1665/1/1 1666/2/1 1667/3/1 1668/4/1
f 1669/1/1 1670/2/1 1671/3/1 1672/4/1
f 1673/1/1 1674/2/1 1675/3/1 1676/4/1
f 1677/1/1 1678/2/1 1679/3/1 1680/4/1
f 1681/1/1 1682/2/1 1683/3/1 1684/4/1
f 1685/1/1 1686/2/1 1687/3/1 1688/4/1
f 1689/1/1 1690/2/1 1691/3/1 1692/4/1
f 1693/1/1 1694/2/1 1695/3/1 1696/4/1
f 1697/1/1 1698/2/1 1699/3/1 1700/4/1
f 1701/1/1 1702/2/1 1703/3/1 1704/4/1
f 1705/1/1 1706/2/1 1707/3/1 1708/4/1
f 1709/1/1 1710/2/1 1711/3/1 1712/4/1
f 1713/1/1 1714/2/1 1715/3/1 1716/4/1
f 1717/1/1 1718/2/1 1719/3/1 1720/4/1
f 1721/1/1 1722/2/1 1723/3/1 1724/4/1
f 1725/1/1 1726/2/1 1727/3/1 1728/4/1
f 1729/1/1 1730/2/1 1731/3/1 1732/4/1
f 1733/1/1 1734/2/1 1735/3/1 1736/4/1
f 1737/1/1 1738/2/1 1739/3/1 1740/4/1
f 1741/1/1 1742/2/1 1743/3/1 1744/4/1
f 1745/1/1 1746/2/1 1747/3/1 1748/4/1
f 1749/1/1 1750/2/1 1751/3/1 1752/4/1
f 1753/1/1 1754/2/1 1755/3/1 1756/4/1
f 1757/1/1 1758/2/1 1759/3/1 1760/4/1
f 1761/1/1 1762/2/1 1763/3/1 1764/4/1
f 1765/1/1 1766/2/1 1767/3/1 1768/4/1
f 1769/1/1 1770/2/1 1771/3/1 1772/4/1
f 1773/1/1 1774/2/1 1775/3/1 1776/4/1
f 1777/1/1 1778/2/1 1779/3/1 1780/4/1
f 1781/1/1 1782/2/1 1783/3/1 1784/4/1
f 1785/1/1 1786/2/1 1787/3/1 1788/4/1
f 1789/1/1 1790/2/1 1791/3/1 1792/4/1
f 1793/1/1 1794/2/1 1795/3/1 1796/4/1
f 1797/1/1 1798/2/1 1799/3/1 1800/4/1
f 1801/1/1 1802/2/1 1803/3/1 1804/4/1
f 1805/1/1 1806/2/1 1807/3/1 1808/4/1
f 1809/1/1 1810/2/1 1811/3/1 1812/4/1
f 1813/1/1 1814/2/1 1815/3/1 1816/4/1
f 1817/1/1 1818/2/1 1819/3/1 1820/4/1
f 1821/1/1 1822/2/1 1823/3/1 1824/4/1
f 1825/1/1 1826/2/1 1827/3/1 1828/4/1
f 1829/1/1 1830/2/1 1831/3/1 1832/4/1
f 1833/1/1 1834/2/1 1835/3/1 1836/4/1
f 1837/1/1 1838/2/1 1839/3/1 1840/4/1
f 1841/1/1 1842/2/1 1843/3/1 1844/4/1
f 1845/1/1 1846/2/1 1847/3/1 1848/4/1
f 1849/1/1 1850/2/1 1851/3/1 1852/4/1
f 1853/1/1 1854/2/1 1855/3/1 1856/4/1
f 1857/1/1 1858/2/1 1859/3/1 1860/4/1
f 1861/1/1 1862/2/1 1863/3/1 1864/4/1
f 1865/1/1 1866/2/1 1867/3/1 1868/4/1
f 1869/1/1 1870/2/1 1871/3/1 1872/4/1
f 1873/1/1 1874/2/1 1875/3/1 1876/4/1
f 1877/1/1 1878/2/1 1879/3/1 1880/4/1
f 1881/1/1 1882/2/1 1883/3/1 1884/4/1
f 1885/1/1 1886/2/1 1887/3/1 1888/4/1
f 1889/1/1 1890/2/1 1891/3/1 1892/4/1
f 1893/1/1 1894/2/1 1895/3/1 1896/4/1
f 1897/1/1 1898/2/1 1899/3/1 1900/4/1
f 1901/1/1 1902/2/1 1903/3/1 1904/4/1
f 1905/1/1 1906/2/1 1907/3/1 1908/4/1
f 1909/1/1 1910/2/1 1911/3/1 1912/4/1
f 1913/1/1 1914/2/1 1915/3/1 1916/4/1
f 1917/1/1 1918/2/1 1919/3/1 1920/4/1
f 1921/1/1 1922/2/1 1923/3/1 1924/4/1
f 1925/1/1 1926/2/1 1927/3/1 1928/4/1
f 1929/1/1 1930/2/1 1931/3/1 1932/4/1
f 1933/1/1 1934/2/1 1935/3/1 1936/4/1
f 1937/1/1 1938/2/1 1939/3/1 1940/4/1
f 1941/1/1 1942/2/1 1943/3/1 1944/4/1
f 1945/1/1 1946/2/1 1947/3/1 1948/4/1
f 1949/1/1 1950/2/1 1951/3/1 1952/4/1
f 1953/1/1 1954/2/1 1955/3/1 1956/4/1
f 1957/1/1 1958/2/1 1959/3/1 1960/4/1
f 1961/1/1 1962/2/1 1963/3/1 1964/4/1
f 1965/1/1 1966/2/1 1967/3/1 1968/4/1
f 1969/1/1 1970/2/1 1971/3/1 1972/4/1
f 1973/1/1 1974/2/1 1975/3/1 1976/4/1
f 1977/1/1 1978/2/1 1979/3/1 1980/4/1
f 1981/1/1 1982/2/1 1983/3/1 1984/4/1
f 1985/1/1 1986/2/1 1987/3/1 1988/4/1
f 1989/1/1 1990/2/1 1991/3/1 1992/4/1
f 1993/1/1 1994/2/1 1995/3/1 1996/4/1
f 1997/1/1 1998/2/1 1999/3/1 2000/4/1
f 2001/1/1 2002/2/1 2003/3/1 2004/4/1
f 2005/1/1 2006/2/1 2007/3/1 2008/4/1
f 2009/1/1 2010/2/1 2011/3/1 2012/4/1
f 2013/1/1 2014/2/1 2015/3/1 2016/4/1
f 2017/1/1 2018/2/1 2019/3/1 2020/4/1
f 2021/1/1 2022/2/1 2023/3/1 2024/4/1
f 2025/1/1 2026/2/1 2027/3/1 2028/4/1
f 2029/1/1 2030/2/1 2031/3/1 2032/4/1
f 2033/1/1 2034/2/1 2035/3/1 2036/4/1
f 2037/1/1 2038/2/1 2039/3/1 2040/4/1
f 2041/1/1 2042/2/1 2043/3/1 2044/4/1
f 2045/1/1 2046/2/1 2047/3/1 2048/4/1
f 2049/1/1 2050/2/1 2051/3/1 2052/4/1
f 2053/1/1 2054/2/1 2055/3/1 2056/4/1
f 2057/1/1 2058/2/1 2059/3/1 2060/4/1
f 2061/1/1 2062/2/1 2063/3/1 2064/4/1
f 2065/1/1 2066/2/1 2067/3/1 2068/4/1
f 2069/1/1 2070/2/1 2071/3/1 2072/4/1
f 2073/1/1 2074/2/1 2075/3/1 2076/4/1
f 2077/1/1 2078/2/1 2079/3/1 2080/4/1
f 2081/1/1 2082/2/1 2083/3/1 2084/4/1
f 2085/1/1 2086/2/1 2087/3/1 2088/4/1
f 2089/1/1 2090/2/1 2091/3/1 2092/4/1
f 2093/1/1 2094/2/1 2095/3/1 2096/4/1
f 2097/1/1 2098/2/1 2099/3/1 2100/4/1
f 2101/1/1 2102/2/1 2103/3/1 2104/4/1
f 2105/1/1 2106/2/1 2107/3/1 2108/4/1
f 2109/1/1 2110/2/1 2111/3/1 2112/4/1
f 2113/1/1 2114/2/1 2115/3/1 2116/4/1
f 2117/1/1 2118/2/1 2119/3/1 2120/4/1
f 2121/1/1 2122/2/1 2123/3/1 2124/4/1
f 2125/1/1 2126/2/1 2127/3/1 2128/4/1
f 2129/1/1 2130/2/1 2131/3/1 2132/4/1
f 2133/1/1 2134/2/1 2135/3/1 2136/4/1
f 2137/1/1 2138/2/1 2139/3/1 2140/4/1
f 2141/1/1 2142/2/1 2143/3/1 2144/4/1
f 2145/1/1 2146/2/1 2147/3/1 2148/4/1
f 2149/1/1 2150/2/1 2151/3/1 2152/4/1
f 2153/1/1 2154/2/1 2155/3/1 2156/4/1
f 2157/1/1 2158/2/1 2159/3/1 2160/4/1
f 2161/1/1 2162/2/1 2163/3/1 2164/4/1
f 2165/1/1 2166/2/1 2167/3/1 2168/4/1
f 2169/1/1 2170/2/1 2171/3/1 2172/4/1
f 2173/1/1 2174/2/1 2175/3/1 2176/4/1
f 2177/1/1 2178/2/1 2179/3/1 2180/4/1
f 2181/1/1 2182/2/1 2183/3/1 2184/4/1
f 2185/1/1 2186/2/1 2187/3/1 2188/4/1
f 2189/1/1 2190/2/1 2191/3/1 2192/4/1
f 2193/1/1 2194/2/1 2195/3/1 2196/4/1
f 2197/1/1 2198/2/1 2199/3/1 2200/4/1
f 2201/1/1 2202/2/1 2203/3/1 2204/4/1
f 2205/1/1 2206/2/1 2207/3/1 2208/4/1
f 2209/1/1 2210/2/1 2211/3/1 2212/4/1
f 2213/1/1 2214/2/1 2215/3/1 2216/4/1
f 2217/1/1 2218/2/1 2219/3/1 2220/4/1
f 2221/1/1 2222/2/1 2223/3/1 2224/4/1
f 2225/1/1 2226/2/1 2227/3/1 2228/4/1
f 2229/1/1 2230/2/1 2231/3/1 2232/4/1
f 2233/1/1 2234/2/1 2235/3/1 2236/4/1
f 2237/1/1 2238/2/1 2239/3/1 2240/4/1
f 2241/1/1 2242/2/1 2243/3/1 2244/4/1
f 2245/1/1 2246/2/1 2247/3/1 2248/4/1
f 2249/1/1 2250/2/1 2251/3/1 2252/4/1
f 2253/1/1 2254/2/1 2255/3/1 2256/4/1
f 2257/1/1 2258/2/1 2259/3/1 2260/4/1
f 2261/1/1 2262/2/1 2263/3/1 2264/4/1
f 2265/1/1 2266/2/1 2267/3/1 2268/4/1
f 2269/1/1 2270/2/1 2271/3/1 2272/4/1
f 2273/1/1 2274/2/1 2275/3/1 2276/4/1
f 2277/1/1 2278/2/1 2279/3/1 2280/4/1
f 2281/1/1 2282/2/1 2283/3/1 2284/4/1
f 2285/1/1 2286/2/1 2287/3/1 2288/4/1
f 2289/1/1 2290/2/1 2291/3/1 2292/4/1
f 2293/1/1 2294/2/1 2295/3/1 2296/4/1
f 2297/1/1 2298/2/1 2299/3/1 2300/4/1
f 2301/1/1 2302/2/1 2303/3/1 2304/4/1
f 2305/1/1 2306/2/1 2307/3/1 2308/4/1
f 2309/1/1 2310/2/1 2311/3/1 2312/4/1
f 2313/1/1 2314/2/1 2315/3/1 2316/4/1
f 2317/1/1 2318/2/1 2319/3/1 2320/4/1
f 2321/1/1 2322/2/1 2323/3/1 2324/4/1
f 2325/1/1 2326/2/1 2327/3/1 2328/4/1
f 2329/1/1 2330/2/1 2331/3/1 2332/4/1
f 2333/1/1 2334/2/1 2335/3/1 2336/4/1
f 2337/1/1 2338/2/1 2339/3/1 2340/4/1
f 2341/1/1 2342/2/1 2343/3/1 2344/4/1
f 2345/1/1 2346/2/1 2347/3/1 2348/4/1
f 2349/1/1 2350/2/1 2351/3/1 2352/4/1
f 2353/1/1 2354/2/1 2355/3/1 2356/4/1
f 2357/1/1 2358/2/1 2359/3/1 2360/4/1
f 2361/1/1 2362/2/1 2363/3/1 2364/4/1
f 2365/1/1 2366/2/1 2367/3/1 2368/4/1
f 2369/1/1 2370/2/1 2371/3/1 2372/4/1
f 2373/1/1 2374/2/1 2375/3/1 2376/4/1
f 2377/1/1 2378/2/1 2379/3/1 2380/4/1
f 2381/1/1 2382/2/1 2383/3/1 2384/4/1
f 2385/1/1 2386/2/1 2387/3/1 2388/4/1
f 2389/1/1 2390/2/1 2391/3/1 2392/4/1
f 2393/1/1 2394/2/1 2395/3/1 2396/4/1
f 2397/1/1 2398/2/1 2399/3/1 2400/4/1
f 2401/1/1 2402/2/1 2403/3/1 2404/4/1
f 2405/1/1 2406/2/1 2407/3/1 2408/4/1
f 2409/1/1 2410/2/1 2411/3/1 2412/4/1
f 2413/1/1 2414/2/1 2415/3/1 2416/4/1
f 2417/1/1 2418/2/1 2419/3/1 2420/4/1
f 2421/1/1 2422/2/1 2423/3/1 2424/4/1
f 2425/1/1 2426/2/1 2427/3/1 2428/4/1
f 2429/1/1 2430/2/1 2431/3/1 2432/4/1
f 2433/1/1 2434/2/1 2435/3/1 2436/4/1
f 2437/1/1 2438/2/1 2439/3/1 2440/4/1
f 2441/1/1 2442/2/1 2443/3/1 2444/4/1
f 2445/1/1 2446/2/1 2447/3/1 2448/4/1
f 2449/1/1 2450/2/1 2451/3/1 2452/4/1
f 2453/1/1 2454/2/1 2455/3/1 2456/4/1
f 2457/1/1 2458/2/1 2459/3/1 2460/4/1
f 2461/1/1 2462/2/1 2463/3/1 2464/4/1
f 2465/1/1 2466/2/1 2467/3/1 2468/4/1
f 2469/1/1 2470/2/1 2471/3/1 2472/4/1
f 2473/1/1 2474/2/1 2475/3/1 2476/4/1
f 2477/1/1 2478/2/1 2479/3/1 2480/4/1
f 2481/1/1 2482/2/1 2483/3/1 2484/4/1
f 2485/1/1 2486/2/1 2487/3/1 2488/4/1
f 2489/1/1 2490/2/1 2491/3/1 2492/4/1
f 2493/1/1 2494/2/1 2495/3/1 2496/4/1
f 2497/1/1 2498/2/1 2499/3/1 2500/4/1
f 2501/1/1 2502/2/1 2503/3/1 2504/4/1
f 2505/1/1 2506/2/1 2507/3/1 2508/4/1
f 2509/1/1 2510/2/1 2511/3/1 2512/4/1
f 2513/1/1 2514/2/1 2515/3/1 2516/4/1
f 2517/1/1 2518/2/1 2519/3/1 2520/4/1
f 2521/1/1 2522/2/1 2523/3/1 2524/4/1
f 2525/1/1 2526/2/1 2527/3/1 2528/4/1
f 2529/1/1 2530/2/1 2531/3/1 2532/4/1
f 2533/1/1 2534/2/1 2535/3/1 2536/4/1
f 2537/1/1 2538/2/1 2539/3/1 2540/4/1
f 2541/1/1 2542/2/1 2543/3/1 2544/4/1
f 2545/1/1 2546/2/1 2547/3/1 2548/4/1
f 2549/1/1 2550/2/1 2551/3/1 2552/4/1
f 2553/1/1 2554/2/1 2555/3/1 2556/4/1
f 2557/1/1 2558/2/1 2559/3/1 2560/4/1
f 2561/1/1 2562/2/1 2563/3/1 2564/4/1
f 2565/1/1 2566/2/1 2567/3/1 2568/4/1
f 2569/1/1 2570/2/1 2571/3/1 2572/4/1
f 2573/1/1 2574/2/1 2575/3/1 2576/4/1
f 2577/1/1 2578/2/1 2579/3/1 2580/4/1
f 2581/1/1 2582/2/1 2583/3/1 2584/4/1
f 2585/1/1 2586/2/1 2587/3/1 2588/4/1
f 2589/1/1 2590/2/1 2591/3/1 2592/4/1
f 2593/1/1 2594/2/1 2595/3/1 2596/4/1
f 2597/1/1 2598/2/1 2599/3/1 2600/4/1
f 2601/1/1 2602/2/1 2603/3/1 2604/4/1
f 2605/1/1 2606/2/1 2607/3/1 2608/4/1
f 2609/1/1 2610/2/1 2611/3/1 2612/4/1
f 2613/1/1 2614/2/1 2615/3/1 2616/4/1
f 2617/1/1 2618/2/1 2619/3/1 2620/4/1
f 2621/1/1 2622/2/1 2623/3/1 2624/4/1
f 2625/1/1 2626/2/1 2627/3/1 2628/4/1
f 2629/1/1 2630/2/1 2631/3/1 2632/4/1
f 2633/1/1 2634/2/1 2635/3/1 2636/4/1
f 2637/1/1 2638/2/1 2639/3/1 2640/4/1
f 2641/1/1 2642/2/1 2643/3/1 2644/4/1
f 2645/1/1 2646/2/1 2647/3/1 2648/4/1
f 2649/1/1 2650/2/1 2651/3/1 2652/4/1
f 2653/1/1 2654/2/1 2655/3/1 2656/4/1
f 2657/1/1 2658/2/1 2659/3/1 2660/4/1
f 2661/1/1 2662/2/1 2663/3/1 2664/4/1
f 2665/1/1 2666/2/1 2667/3/1 2668/4/1
f 2669/1/1 2670/2/1 2671/3/1 2672/4/1
f 2673/1/1 2674/2/1 2675/3/1 2676/4/1
f 2677/1/1 2678/2/1 2679/3/1 2680/4/1
f 2681/1/1 2682/2/1 2683/3/1 2684/4/1
f 2685/1/1 2686/2/1 2687/3/1 2688/4/1
f 2689/1/1 2690/2/1 2691/3/1 2692/4/1
f 2693/1/1 2694/2/1 2695/3/1 2696/4/1
f 2697/1/1 2698/2/1 2699/3/1 2700/4/1
f 2701/1/1 2702/2/1 2703/3/1 2704/4/1
f 2705/1/1 2706/2/1 2707/3/1 2708/4/1
f 2709/1/1 2710/2/1 2711/3/1 2712/4/1
f 2713/1/1 2714/2/1 2715/3/1 2716/4/1
f 2717/1/1 2718/2/1 2719/3/1 2720/4/1
f 2721/1/1 2722/2/1 2723/3/1 2724/4/1
f 2725/1/1 2726/2/1 2727/3/1 2728/4/1
f 2729/1/1 2730/2/1 2731/3/1 2732/4/1
f 2733/1/1 2734/2/1 2735/3/1 2736/4/1
f 2737/1/1 2738/2/1 2739/3/1 2740/4/1
f 2741/1/1 2742/2/1 2743/3/1 2744/4/1
f 2745/1/1 2746/2/1 2747/3/1 2748/4/1
f 2749/1/1 2750/2/1 2751/3/1 2752/4/1
f 2753/1/1 2754/2/1 2755/3/1 2756/4/1
f 2757/1/1 2758/2/1 2759/3/1 2760/4/1
f 2761/1/1 2762/2/1 2763/3/1 2764/4/1
f 2765/1/1 2766/2/1 2767/3/1 2768/4/1
f 2769/1/1 2770/2/1 2771/3/1 2772/4/1
f 2773/1/1 2774/2/1 2775/3/1 2776/4/1
f 2777/1/1 2778/2/1 2779/3/1 2780/4/1
f 2781/1/1 2782/2/1 2783/3/1 2784/4/1
f 2785/1/1 2786/2/1 2787/3/1 2788/4/1
f 2789/1/1 2790/2/1 2791/3/1 2792/4/1
f 2793/1/1 2794/2/1 2795/3/1 2796/4/1
f 2797/1/1 2798/2/1 2799/3/1 2800/4/1
f 2801/1/1 2802/2/1 2803/3/1 2804/4/1
f 2805/1/1 2806/2/1 2807/3/1 2808/4/1
f 2809/1/1 2810/2/1 2811/3/1 2812/4/1
f 2813/1/1 2814/2/1 2815/3/1 2816/4/1
f 2817/1/1 2818/2/1 2819/3/1 2820/4/1
f 2821/1/1 2822/2/1 2823/3/1 2824/4/1
f 2825/1/1 2826/2/1 2827/3/1 2828/4/1
f 2829/1/1 2830/2/1 2831/3/1 2832/4/1
f 2833/1/1 2834/2/1 2835/3/1 2836/4/1
f 2837/1/1 2838/2/1 2839/3/1 2840/4/1
f 2841/1/1 2842/2/1 2843/3/1 2844/4/1
f 2845/1/1 2846/2/1 2847/3/1 2848/4/1
f 2849/1/1 2850/2/1 2851/3/1 2852/4/1
f 2853/1/1 2854/2/1 2855/3/1 2856/4/1
f 2857/1/1 2858/2/1 2859/3/1 2860/4/1
f 2861/1/1 2862/2/1 2863/3/1 2864/4/1
f 2865/1/1 2866/2/1 2867/3/1 2868/4/1
f 2869/1/1 2870/2/1 2871/3/1 2872/4/1
f 2873/1/1 2874/2/1 2875/3/1 2876/4/1
f 2877/1/1 2878/2/1 2879/3/1 2880/4/1
f 2881/1/1 2882/2/1 2883/3/1 2884/4/1
f 2885/1/1 2886/2/1 2887/3/1 2888/4/1
f 2889/1/1 2890/2/1 2891/3/1 2892/4/1
f 2893/1/1 2894/2/1 2895/3/1 2896/4/1
f 2897/1/1 2898/2/1 2899/3/1 2900/4/1
f 2901/1/1 2902/2/1 2903/3/1 2904/4/1
f 2905/1/1 2906/2/1 2907/3/1 2908/4/1
f 2909/1/1 2910/2/1 2911/3/1 2912/4/1
f 2913/1/1 2914/2/1 2915/3/1 2916/4/1
f 2917/1/1 2918/2/1 2919/3/1 2920/4/1
f 2921/1/1 2922/2/1 2923/3/1 2924/4/1
f 2925/1/1 2926/2/1 2927/3/1 2928/4/1
f 2929/1/1 2930/2/1 2931/3/1 2932/4/1
f 2933/1/1 2934/2/1 2935/3/1 2936/4/1
f 2937/1/1 2938/2/1 2939/3/1 2940/4/1
f 2941/1/1 2942/2/1 2943/3/1 2944/4/1
f 2945/1/1 2946/2/1 2947/3/1 2948/4/1
f 2949/1/1 2950/2/1 2951/3/1 2952/4/1
f 2953/1/1 2954/2/1 2955/3/1 2956/4/1
f 2957/1/1 2958/2/1 2959/3/1 2960/4/1
f 2961/1/1 2962/2/1 2963/3/1 2964/4/1
f 2965/1/1 2966/2/1 2967/3/1 2968/4/1
f 2969/1/1 2970/2/1 2971/3/1 2972/4/1
f 2973/1/1 2974/2/1 2975/3/1 2976/4/1
f 2977/1/1 2978/2/1 2979/3/1 2980/4/1
f 2981/1/1 2982/2/1 2983/3/1 2984/4/1
f 2985/1/1 2986/2/1 2987/3/1 2988/4/1
f 2989/1/1 2990/2/1 2991/3/1 2992/4/1
f 2993/1/1 2994/2/1 2995/3/1 2996/4/1
f 2997/1/1 2998/2/1 2999/3/1 3000/4/1
f 3001/1/1 3002/2/1 3003/3/1 3004/4/1
f 3005/1/1 3006/2/1 3007/3/1 3008/4/1
f 3009/1/1 3010/2/1 3011/3/1 3012/4/1
f 3013/1/1 3014/2/1 3015/3/1 3016/4/1
f 3017/1/1 3018/2/1 3019/3/1 3020/4/1
f 3021/1/1 3022/2/1 3023/3/1 3024/4/1
f 3025/1/1 3026/2/1 3027/3/1 3028/4/1
f 3029/1/1 3030/2/1 3031/3/1 3032/4/1
f 3033/1/1 3034/2/1 3035/3/1 3036/4/1
f 3037/1/1 3038/2/1 3039/3/1 3040/4/1
f 3041/1/1 3042/2/1 3043/3/1 3044/4/1
f 3045/1/1 3046/2/1 3047/3/1 3048/4/1
f 3049/1/1 3050/2/1 3051/3/1 3052/4/1
f 3053/1/1 3054/2/1 3055/3/1 3056/4/1
f 3057/1/1 3058/2/1 3059/3/1 3060/4/1
f 3061/1/1 3062/2/1 3063/3/1 3064/4/1
f 3065/1/1 3066/2/1 3067/3/1 3068/4/1
f 3069/1/1 3070/2/1 3071/3/1 3072/4/1
f 3073/1/1 3074/2/1 3075/3/1 3076/4/1
f 3077/1/1 3078/2/1 3079/3/1 3080/4/1
f 3081/1/1 3082/2/1 3083/3/1 3084/4/1
f 3085/1/1 3086/2/1 3087/3/1 3088/4/1
f 3089/1/1 3090/2/1 3091/3/1 3092/4/1
f 3093/1/1 3094/2/1 3095/3/1 3096/4/1
f 3097/1/1 3098/2/1 3099/3/1 3100/4/1
f 3101/1/1 3102/2/1 3103/3/1 3104/4/1
f 3105/1/1 3106/2/1 3107/3/1 3108/4/1
f 3109/1/1 3110/2/1 3111/3/1 3112/4/1
f 3113/1/1 3114/2/1 3115/3/1 3116/4/1
f 3117/1/1 3118/2/1 3119/3/1 3120/4/1
f 3121/1/1 3122/2/1 3123/3/1 3124/4/1
f 3125/1/1 3126/2/1 3127/3/1 3128/4/1
f 3129/1/1 3130/2/1 3131/3/1 3132/4/1
f 3133/1/1 3134/2/1 3135/3/1 3136/4/1
f 3137/1/1 3138/2/1 3139/3/1 3140/4/1
f 3141/1/1 3142/2/1 3143/3/1 3144/4/1
f 3145/1/1 3146/2/1 3147/3/1 3148/4/1
f 3149/1/1 3150/2/1 3151/3/1 3152/4/1
f 3153/1/1 3154/2/1 3155/3/1 3156/4/1
f 3157/1/1 3158/2/1 3159/3/1 3160/4/1
f 3161/1/1 3162/2/1 3163/3/1 3164/4/1
f 3165/1/1 3166/2/1 3167/3/1 3168/4/1
f 3169/1/1 3170/2/1 3171/3/1 3172/4/1
f 3173/1/1 3174/2/1 3175/3/1 3176/4/1
f 3177/1/1 3178/2/1 3179/3/1 3180/4/1
f 3181/1/1 3182/2/1 3183/3/1 3184/4/1
f 3185/1/1 3186/2/1 3187/3/1 3188/4/1
f 3189/1/1 3190/2/1 3191/3/1 3192/4/1
f 3193/1/1 3194/2/1 3195/3/1 3196/4/1
f 3197/1/1 3198/2/1 3199/3/1 3200/4/1
f 3201/1/1 3202/2/1 3203/3/1 3204/4/1
f 3205/1/1 3206/2/1 3207/3/1 3208/4/1
f 3209/1/1 3210/2/1 3211/3/1 3212/4/1
f 3213/1/1 3214/2/1 3215/3/1 3216/4/1
f 3217/1/1 3218/2/1 3219/3/1 3220/4/1
f 3221/1/1 3222/2/1 3223/3/1 3224/4/1
f 3225/1/1 3226/2/1 3227/3/1 3228/4/1
f 3229/1/1 3230/2/1 3231/3/1 3232/4/1
f 3233/1/1 3234/2/1 3235/3/1 3236/4/1
f 3237/1/1 3238/2/1 3239/3/1 3240/4/1
f 3241/1/1 3242/2/1 3243/3/1 3244/4/1
f 3245/1/1 3246/2/1 3247/3/1 3248/4/1
f 3249/1/1 3250/2/1 3251/3/1 3252/4/1
f 3253/1/1 3254/2/1 3255/3/1 3256/4/1
f 3257/1/1 3258/2/1 3259/3/1 3260/4/1
f 3261/1/1 3262/2/1 3263/3/1 3264/4/1
f 3265/1/1 3266/2/1 3267/3/1 3268/4/1
f 3269/1/1 3270/2/1 3271/3/1 3272/4/1
f 3273/1/1 3274/2/1 3275/3/1 3276/4/1
f 3277/1/1 3278/2/1 3279/3/1 3280/4/1
f 3281/1/1 3282/2/1 3283/3/1 3284/4/1
f 3285/1/1 3286/2/1 3287/3/1 3288/4/1
f 3289/1/1 3290/2/1 3291/3/1 3292/4/1
f 3293/1/1 3294/2/1 3295/3/1 3296/4/1
f 3297/1/1 3298/2/1 3299/3/1 3300/4/1
f 3301/1/1 3302/2/1 3303/3/1 3304/4/1
f 3305/1/1 3306/2/1 3307/3/1 3308/4/1
f 3309/1/1 3310/2/1 3311/3/1 3312/4/1
f 3313/1/1 3314/2/1 3315/3/1 3316/4/1
f 3317/1/1 3318/2/1 3319/3/1 3320/4/1
f 3321/1/1 3322/2/1 3323/3/1 3324/4/1
f 3325/1/1 3326/2/1 3327/3/1 3328/4/1
f 3329/1/1 3330/2/1 3331/3/1 3332/4/1
f 3333/1/1 3334/2/1 3335/3/1 3336/4/1
f 3337/1/1 3338/2/1 3339/3/1 3340/4/1
f 3341/1/1 3342/2/1 3343/3/1 3344/4/1
f 3345/1/1 3346/2/1 3347/3/1 3348/4/1
f 3349/1/1 3350/2/1 3351/3/1 3352/4/1
f 3353/1/1 3354/2/1 3355/3/1 3356/4/1
f 3357/1/1 3358/2/1 3359/3/1 3360/4/1
f 3361/1/1 3362/2/1 3363/3/1 3364/4/1
f 3365/1/1 3366/2/1 3367/3/1 3368/4/1
f 3369/1/1 3370/2/1 3371/3/1 3372/4/1
f 3373/1/1 3374/2/1 3375/3/1 3376/4/1
f 3377/1/1 3378/2/1 3379/3/1 3380/4/1
f 3381/1/1 3382/2/1 3383/3/1 3384/4/1
f 3385/1/1 3386/2/1 3387/3/1 3388/4/1
f 3389/1/1 3390/2/1 3391/3/1 3392/4/1
f 3393/1/1 3394/2/1 3395/3/1 3396/4/1
f 3397/1/1 3398/2/1 3399/3/1 3400/4/1
f 3401/1/1 3402/2/1 3403/3/1 3404/4/1
f 3405/1/1 3406/2/1 3407/3/1 3408/4/1

