%YAML 1.1
%TAG !u! tag:unity3d.com,2011:
--- !u!1001 &100100000
Prefab:
  m_ObjectHideFlags: 1
  serializedVersion: 2
  m_Modification:
    m_TransformParent: {fileID: 0}
    m_Modifications: []
    m_RemovedComponents: []
  m_ParentPrefab: {fileID: 0}
  m_RootGameObject: {fileID: 1415026895670390}
  m_IsPrefabParent: 1
--- !u!1 &1415026895670390
GameObject:
  m_ObjectHideFlags: 0
  m_PrefabParentObject: {fileID: 0}
  m_PrefabInternal: {fileID: 100100000}
  serializedVersion: 5
  m_Component:
  - component: {fileID: 4918476676565240}
  - component: {fileID: 114606194121707096}
  m_Layer: 0
  m_Name: ObjectPooler
  m_TagString: Untagged
  m_Icon: {fileID: 0}
  m_NavMeshLayer: 0
  m_StaticEditorFlags: 0
  m_IsActive: 1
--- !u!4 &4918476676565240
Transform:
  m_ObjectHideFlags: 1
  m_PrefabParentObject: {fileID: 0}
  m_PrefabInternal: {fileID: 100100000}
  m_GameObject: {fileID: 1415026895670390}
  m_LocalRotation: {x: -0, y: -0, z: -0, w: 1}
  m_LocalPosition: {x: 15.92, y: -9.44, z: -2.5751827}
  m_LocalScale: {x: 5, y: 5, z: 1}
  m_Children: []
  m_Father: {fileID: 0}
  m_RootOrder: 0
  m_LocalEulerAnglesHint: {x: 0, y: 0, z: 0}
--- !u!114 &114606194121707096
MonoBehaviour:
  m_ObjectHideFlags: 1
  m_PrefabParentObject: {fileID: 0}
  m_PrefabInternal: {fileID: 100100000}
  m_GameObject: {fileID: 1415026895670390}
  m_Enabled: 1
  m_EditorHideFlags: 0
  m_Script: {fileID: 11500000, guid: 6c3a6e4eb9b98214195cb722eeb9d0e2, type: 3}
  m_Name: 
  m_EditorClassIdentifier: 
  pooledObjects: []
  itemsToPool:
  - amountToPool: 1
    objectToPool: {fileID: 1288848961888878, guid: 9f0acfd4e7089cf448f43a0594409d02,
      type: 2}
    shouldExpand: 1
  - amountToPool: 5
    objectToPool: {fileID: 1828522544593208, guid: 8457dee730324544ba12ff1ae51dc82b,
      type: 2}
    shouldExpand: 1
