%YAML 1.1
%TAG !u! tag:unity3d.com,2011:
--- !u!1001 &100100000
Prefab:
  m_ObjectHideFlags: 1
  serializedVersion: 2
  m_Modification:
    m_TransformParent: {fileID: 0}
    m_Modifications: []
    m_RemovedComponents: []
  m_ParentPrefab: {fileID: 0}
  m_RootGameObject: {fileID: 1458931443895814}
  m_IsPrefabParent: 1
--- !u!1 &1458931443895814
GameObject:
  m_ObjectHideFlags: 0
  m_PrefabParentObject: {fileID: 0}
  m_PrefabInternal: {fileID: 100100000}
  serializedVersion: 5
  m_Component:
  - component: {fileID: 4862538497099164}
  - component: {fileID: 2569400265492800042}
  m_Layer: 8
  m_Name: tilemaptest
  m_TagString: Untagged
  m_Icon: {fileID: 0}
  m_NavMeshLayer: 0
  m_StaticEditorFlags: 0
  m_IsActive: 1
--- !u!1 &1715084047058236
GameObject:
  m_ObjectHideFlags: 0
  m_PrefabParentObject: {fileID: 0}
  m_PrefabInternal: {fileID: 100100000}
  serializedVersion: 5
  m_Component:
  - component: {fileID: 4529700101730904}
  - component: {fileID: 8195094281332717946}
  - component: {fileID: 3664157343380614448}
  m_Layer: 31
  m_Name: Layer1
  m_TagString: Untagged
  m_Icon: {fileID: 0}
  m_NavMeshLayer: 0
  m_StaticEditorFlags: 0
  m_IsActive: 1
--- !u!4 &4529700101730904
Transform:
  m_ObjectHideFlags: 1
  m_PrefabParentObject: {fileID: 0}
  m_PrefabInternal: {fileID: 100100000}
  m_GameObject: {fileID: 1715084047058236}
  m_LocalRotation: {x: -0, y: -0, z: -0, w: 1}
  m_LocalPosition: {x: 0, y: 0, z: 0}
  m_LocalScale: {x: 1, y: 1, z: 1}
  m_Children: []
  m_Father: {fileID: 4862538497099164}
  m_RootOrder: 0
  m_LocalEulerAnglesHint: {x: 0, y: 0, z: 0}
--- !u!4 &4862538497099164
Transform:
  m_ObjectHideFlags: 1
  m_PrefabParentObject: {fileID: 0}
  m_PrefabInternal: {fileID: 100100000}
  m_GameObject: {fileID: 1458931443895814}
  m_LocalRotation: {x: 0, y: 0, z: 0, w: 1}
  m_LocalPosition: {x: 0, y: 0, z: 0}
  m_LocalScale: {x: 1, y: 1, z: 1}
  m_Children:
  - {fileID: 4529700101730904}
  m_Father: {fileID: 0}
  m_RootOrder: 0
  m_LocalEulerAnglesHint: {x: 0, y: 0, z: 0}
--- !u!114 &114291530974494202
MonoBehaviour:
  m_ObjectHideFlags: 0
  m_PrefabParentObject: {fileID: 0}
  m_PrefabInternal: {fileID: 0}
  m_GameObject: {fileID: 0}
  m_Enabled: 1
  m_EditorHideFlags: 1
  m_Script: {fileID: 12395, guid: 0000000000000000e000000000000000, type: 0}
  m_Name: Palette Settings
  m_EditorClassIdentifier: 
  cellSizing: 0
--- !u!156049354 &2569400265492800042
Grid:
  m_ObjectHideFlags: 1
  m_PrefabParentObject: {fileID: 0}
  m_PrefabInternal: {fileID: 100100000}
  m_GameObject: {fileID: 1458931443895814}
  m_Enabled: 1
  m_CellSize: {x: 1, y: 1, z: 0}
  m_CellGap: {x: 0, y: 0, z: 0}
  m_CellLayout: 0
  m_CellSwizzle: 0
--- !u!483693784 &3664157343380614448
TilemapRenderer:
  m_ObjectHideFlags: 1
  m_PrefabParentObject: {fileID: 0}
  m_PrefabInternal: {fileID: 100100000}
  m_GameObject: {fileID: 1715084047058236}
  m_Enabled: 0
  m_CastShadows: 0
  m_ReceiveShadows: 0
  m_DynamicOccludee: 0
  m_MotionVectors: 1
  m_LightProbeUsage: 0
  m_ReflectionProbeUsage: 0
  m_Materials:
  - {fileID: 10754, guid: 0000000000000000f000000000000000, type: 0}
  m_StaticBatchInfo:
    firstSubMesh: 0
    subMeshCount: 0
  m_StaticBatchRoot: {fileID: 0}
  m_ProbeAnchor: {fileID: 0}
  m_LightProbeVolumeOverride: {fileID: 0}
  m_ScaleInLightmap: 1
  m_PreserveUVs: 0
  m_IgnoreNormalsForChartDetection: 0
  m_ImportantGI: 0
  m_StitchLightmapSeams: 0
  m_SelectedEditorRenderState: 0
  m_MinimumChartSize: 4
  m_AutoUVMaxDistance: 0.5
  m_AutoUVMaxAngle: 89
  m_LightmapParameters: {fileID: 0}
  m_SortingLayerID: 0
  m_SortingLayer: 0
  m_SortingOrder: 0
  m_ChunkSize: {x: 32, y: 32, z: 32}
  m_MaxChunkCount: 16
  m_MaxFrameAge: 16
  m_SortOrder: 0
  m_MaskInteraction: 0
--- !u!1839735485 &8195094281332717946
Tilemap:
  m_ObjectHideFlags: 1
  m_PrefabParentObject: {fileID: 0}
  m_PrefabInternal: {fileID: 100100000}
  m_GameObject: {fileID: 1715084047058236}
  m_Enabled: 1
  m_Tiles:
  - first: {x: -10, y: 0, z: 0}
    second:
      m_TileIndex: 20
      m_TileSpriteIndex: 20
      m_TileMatrixIndex: 0
      m_TileColorIndex: 0
      m_ObjectToInstantiate: {fileID: 0}
      m_TileFlags: 1
      m_ColliderType: 1
  - first: {x: -9, y: 0, z: 0}
    second:
      m_TileIndex: 21
      m_TileSpriteIndex: 21
      m_TileMatrixIndex: 0
      m_TileColorIndex: 0
      m_ObjectToInstantiate: {fileID: 0}
      m_TileFlags: 1
      m_ColliderType: 1
  - first: {x: -8, y: 0, z: 0}
    second:
      m_TileIndex: 22
      m_TileSpriteIndex: 22
      m_TileMatrixIndex: 0
      m_TileColorIndex: 0
      m_ObjectToInstantiate: {fileID: 0}
      m_TileFlags: 1
      m_ColliderType: 1
  - first: {x: -7, y: 0, z: 0}
    second:
      m_TileIndex: 23
      m_TileSpriteIndex: 23
      m_TileMatrixIndex: 0
      m_TileColorIndex: 0
      m_ObjectToInstantiate: {fileID: 0}
      m_TileFlags: 1
      m_ColliderType: 1
  - first: {x: -6, y: 0, z: 0}
    second:
      m_TileIndex: 24
      m_TileSpriteIndex: 24
      m_TileMatrixIndex: 0
      m_TileColorIndex: 0
      m_ObjectToInstantiate: {fileID: 0}
      m_TileFlags: 1
      m_ColliderType: 1
  - first: {x: -5, y: 0, z: 0}
    second:
      m_TileIndex: 25
      m_TileSpriteIndex: 25
      m_TileMatrixIndex: 0
      m_TileColorIndex: 0
      m_ObjectToInstantiate: {fileID: 0}
      m_TileFlags: 1
      m_ColliderType: 1
  - first: {x: -4, y: 0, z: 0}
    second:
      m_TileIndex: 26
      m_TileSpriteIndex: 26
      m_TileMatrixIndex: 0
      m_TileColorIndex: 0
      m_ObjectToInstantiate: {fileID: 0}
      m_TileFlags: 1
      m_ColliderType: 1
  - first: {x: -3, y: 0, z: 0}
    second:
      m_TileIndex: 27
      m_TileSpriteIndex: 27
      m_TileMatrixIndex: 0
      m_TileColorIndex: 0
      m_ObjectToInstantiate: {fileID: 0}
      m_TileFlags: 1
      m_ColliderType: 1
  - first: {x: -2, y: 0, z: 0}
    second:
      m_TileIndex: 28
      m_TileSpriteIndex: 28
      m_TileMatrixIndex: 0
      m_TileColorIndex: 0
      m_ObjectToInstantiate: {fileID: 0}
      m_TileFlags: 1
      m_ColliderType: 1
  - first: {x: -1, y: 0, z: 0}
    second:
      m_TileIndex: 29
      m_TileSpriteIndex: 29
      m_TileMatrixIndex: 0
      m_TileColorIndex: 0
      m_ObjectToInstantiate: {fileID: 0}
      m_TileFlags: 1
      m_ColliderType: 1
  - first: {x: -10, y: 1, z: 0}
    second:
      m_TileIndex: 11
      m_TileSpriteIndex: 10
      m_TileMatrixIndex: 0
      m_TileColorIndex: 0
      m_ObjectToInstantiate: {fileID: 0}
      m_TileFlags: 1
      m_ColliderType: 1
  - first: {x: -9, y: 1, z: 0}
    second:
      m_TileIndex: 12
      m_TileSpriteIndex: 11
      m_TileMatrixIndex: 0
      m_TileColorIndex: 0
      m_ObjectToInstantiate: {fileID: 0}
      m_TileFlags: 1
      m_ColliderType: 1
  - first: {x: -8, y: 1, z: 0}
    second:
      m_TileIndex: 13
      m_TileSpriteIndex: 12
      m_TileMatrixIndex: 0
      m_TileColorIndex: 0
      m_ObjectToInstantiate: {fileID: 0}
      m_TileFlags: 1
      m_ColliderType: 1
  - first: {x: -7, y: 1, z: 0}
    second:
      m_TileIndex: 14
      m_TileSpriteIndex: 13
      m_TileMatrixIndex: 0
      m_TileColorIndex: 0
      m_ObjectToInstantiate: {fileID: 0}
      m_TileFlags: 1
      m_ColliderType: 1
  - first: {x: -6, y: 1, z: 0}
    second:
      m_TileIndex: 15
      m_TileSpriteIndex: 14
      m_TileMatrixIndex: 0
      m_TileColorIndex: 0
      m_ObjectToInstantiate: {fileID: 0}
      m_TileFlags: 1
      m_ColliderType: 1
  - first: {x: -5, y: 1, z: 0}
    second:
      m_TileIndex: 16
      m_TileSpriteIndex: 15
      m_TileMatrixIndex: 0
      m_TileColorIndex: 0
      m_ObjectToInstantiate: {fileID: 0}
      m_TileFlags: 1
      m_ColliderType: 1
  - first: {x: -4, y: 1, z: 0}
    second:
      m_TileIndex: 0
      m_TileSpriteIndex: 16
      m_TileMatrixIndex: 0
      m_TileColorIndex: 0
      m_ObjectToInstantiate: {fileID: 0}
      m_TileFlags: 1
      m_ColliderType: 1
  - first: {x: -3, y: 1, z: 0}
    second:
      m_TileIndex: 17
      m_TileSpriteIndex: 17
      m_TileMatrixIndex: 0
      m_TileColorIndex: 0
      m_ObjectToInstantiate: {fileID: 0}
      m_TileFlags: 1
      m_ColliderType: 1
  - first: {x: -2, y: 1, z: 0}
    second:
      m_TileIndex: 18
      m_TileSpriteIndex: 18
      m_TileMatrixIndex: 0
      m_TileColorIndex: 0
      m_ObjectToInstantiate: {fileID: 0}
      m_TileFlags: 1
      m_ColliderType: 1
  - first: {x: -1, y: 1, z: 0}
    second:
      m_TileIndex: 19
      m_TileSpriteIndex: 19
      m_TileMatrixIndex: 0
      m_TileColorIndex: 0
      m_ObjectToInstantiate: {fileID: 0}
      m_TileFlags: 1
      m_ColliderType: 1
  - first: {x: -10, y: 2, z: 0}
    second:
      m_TileIndex: 1
      m_TileSpriteIndex: 0
      m_TileMatrixIndex: 0
      m_TileColorIndex: 0
      m_ObjectToInstantiate: {fileID: 0}
      m_TileFlags: 1
      m_ColliderType: 1
  - first: {x: -9, y: 2, z: 0}
    second:
      m_TileIndex: 2
      m_TileSpriteIndex: 1
      m_TileMatrixIndex: 0
      m_TileColorIndex: 0
      m_ObjectToInstantiate: {fileID: 0}
      m_TileFlags: 1
      m_ColliderType: 1
  - first: {x: -8, y: 2, z: 0}
    second:
      m_TileIndex: 3
      m_TileSpriteIndex: 2
      m_TileMatrixIndex: 0
      m_TileColorIndex: 0
      m_ObjectToInstantiate: {fileID: 0}
      m_TileFlags: 1
      m_ColliderType: 1
  - first: {x: -7, y: 2, z: 0}
    second:
      m_TileIndex: 4
      m_TileSpriteIndex: 3
      m_TileMatrixIndex: 0
      m_TileColorIndex: 0
      m_ObjectToInstantiate: {fileID: 0}
      m_TileFlags: 1
      m_ColliderType: 1
  - first: {x: -6, y: 2, z: 0}
    second:
      m_TileIndex: 5
      m_TileSpriteIndex: 4
      m_TileMatrixIndex: 0
      m_TileColorIndex: 0
      m_ObjectToInstantiate: {fileID: 0}
      m_TileFlags: 1
      m_ColliderType: 1
  - first: {x: -5, y: 2, z: 0}
    second:
      m_TileIndex: 6
      m_TileSpriteIndex: 5
      m_TileMatrixIndex: 0
      m_TileColorIndex: 0
      m_ObjectToInstantiate: {fileID: 0}
      m_TileFlags: 1
      m_ColliderType: 1
  - first: {x: -4, y: 2, z: 0}
    second:
      m_TileIndex: 7
      m_TileSpriteIndex: 6
      m_TileMatrixIndex: 0
      m_TileColorIndex: 0
      m_ObjectToInstantiate: {fileID: 0}
      m_TileFlags: 1
      m_ColliderType: 1
  - first: {x: -3, y: 2, z: 0}
    second:
      m_TileIndex: 8
      m_TileSpriteIndex: 7
      m_TileMatrixIndex: 0
      m_TileColorIndex: 0
      m_ObjectToInstantiate: {fileID: 0}
      m_TileFlags: 1
      m_ColliderType: 1
  - first: {x: -2, y: 2, z: 0}
    second:
      m_TileIndex: 9
      m_TileSpriteIndex: 8
      m_TileMatrixIndex: 0
      m_TileColorIndex: 0
      m_ObjectToInstantiate: {fileID: 0}
      m_TileFlags: 1
      m_ColliderType: 1
  - first: {x: -1, y: 2, z: 0}
    second:
      m_TileIndex: 10
      m_TileSpriteIndex: 9
      m_TileMatrixIndex: 0
      m_TileColorIndex: 0
      m_ObjectToInstantiate: {fileID: 0}
      m_TileFlags: 1
      m_ColliderType: 1
  m_AnimatedTiles: {}
  m_TileAssetArray:
  - m_RefCount: 1
    m_Data: {fileID: 11400000, guid: abe9df25f92b5c74a8d8d7f235abe5bf, type: 2}
  - m_RefCount: 1
    m_Data: {fileID: 11400000, guid: aa8730e6bf27f6d4dac6232300e2c73f, type: 2}
  - m_RefCount: 1
    m_Data: {fileID: 11400000, guid: 9eaf1bdb3fbbbc4439069c43ef80306e, type: 2}
  - m_RefCount: 1
    m_Data: {fileID: 11400000, guid: 2245df1942deed84da24e5cff3492245, type: 2}
  - m_RefCount: 1
    m_Data: {fileID: 11400000, guid: bcc123a175be1924da7175b1489d673e, type: 2}
  - m_RefCount: 1
    m_Data: {fileID: 11400000, guid: 4765724c04a3cf64ea1dbe548d010a38, type: 2}
  - m_RefCount: 1
    m_Data: {fileID: 11400000, guid: 6d15ef300a7128a4ea5a04b45bf3a433, type: 2}
  - m_RefCount: 1
    m_Data: {fileID: 11400000, guid: 965564b551a5f0b4c96e9d4b936ef719, type: 2}
  - m_RefCount: 1
    m_Data: {fileID: 11400000, guid: 2c31338d230ca8c4f8339349e60f3c87, type: 2}
  - m_RefCount: 1
    m_Data: {fileID: 11400000, guid: e330d7712e8ffff42a321699d48d8d4c, type: 2}
  - m_RefCount: 1
    m_Data: {fileID: 11400000, guid: fba30605f1718784ea59e04ad5789c76, type: 2}
  - m_RefCount: 1
    m_Data: {fileID: 11400000, guid: c15b481020a1c0148b3b41c7b9c8bafa, type: 2}
  - m_RefCount: 1
    m_Data: {fileID: 11400000, guid: d389588478b432c48a674c36b0474db0, type: 2}
  - m_RefCount: 1
    m_Data: {fileID: 11400000, guid: 9c218f43c7c150944a20a294330fec69, type: 2}
  - m_RefCount: 1
    m_Data: {fileID: 11400000, guid: 872a367603717bb469c370efdd58bc5c, type: 2}
  - m_RefCount: 1
    m_Data: {fileID: 11400000, guid: e730702bafbaa764dab37fdd96cef94a, type: 2}
  - m_RefCount: 1
    m_Data: {fileID: 11400000, guid: 9a117e8166c833e439f47c1a2546289f, type: 2}
  - m_RefCount: 1
    m_Data: {fileID: 11400000, guid: dd4e3474c87ea284481c4532dbf2e7b3, type: 2}
  - m_RefCount: 1
    m_Data: {fileID: 11400000, guid: 44667384dc7dab24c83f1d2ccc5ac34e, type: 2}
  - m_RefCount: 1
    m_Data: {fileID: 11400000, guid: 26826a8a237a4ec429336aa003b5edf7, type: 2}
  - m_RefCount: 1
    m_Data: {fileID: 11400000, guid: b0d8830712d4c9448ae9031652f3f213, type: 2}
  - m_RefCount: 1
    m_Data: {fileID: 11400000, guid: d0ef12ac1974f0e42ac553d3741c259b, type: 2}
  - m_RefCount: 1
    m_Data: {fileID: 11400000, guid: 591426664890bd34eac99d667d666f90, type: 2}
  - m_RefCount: 1
    m_Data: {fileID: 11400000, guid: dcbfa76ef69838648afe807c6a756933, type: 2}
  - m_RefCount: 1
    m_Data: {fileID: 11400000, guid: f7054a66dad985644a88061a1a86c572, type: 2}
  - m_RefCount: 1
    m_Data: {fileID: 11400000, guid: a3eaf27262d6342428a088a6f72cb827, type: 2}
  - m_RefCount: 1
    m_Data: {fileID: 11400000, guid: 45b5a4c6734650c48a9a279a4473c6ce, type: 2}
  - m_RefCount: 1
    m_Data: {fileID: 11400000, guid: 9b601e41520304246b3b73ebdf6cfbaa, type: 2}
  - m_RefCount: 1
    m_Data: {fileID: 11400000, guid: 92de1a5c78e8d55459d651ce5d5af246, type: 2}
  - m_RefCount: 1
    m_Data: {fileID: 11400000, guid: 7abed1e920b7d724caa6f8f5f3368365, type: 2}
  m_TileSpriteArray:
  - m_RefCount: 1
    m_Data: {fileID: 21300000, guid: ade48f0b4f2fa4c41bd55096f9c65e8d, type: 3}
  - m_RefCount: 1
    m_Data: {fileID: 21300002, guid: ade48f0b4f2fa4c41bd55096f9c65e8d, type: 3}
  - m_RefCount: 1
    m_Data: {fileID: 21300004, guid: ade48f0b4f2fa4c41bd55096f9c65e8d, type: 3}
  - m_RefCount: 1
    m_Data: {fileID: 21300006, guid: ade48f0b4f2fa4c41bd55096f9c65e8d, type: 3}
  - m_RefCount: 1
    m_Data: {fileID: 21300008, guid: ade48f0b4f2fa4c41bd55096f9c65e8d, type: 3}
  - m_RefCount: 1
    m_Data: {fileID: 21300010, guid: ade48f0b4f2fa4c41bd55096f9c65e8d, type: 3}
  - m_RefCount: 1
    m_Data: {fileID: 21300012, guid: ade48f0b4f2fa4c41bd55096f9c65e8d, type: 3}
  - m_RefCount: 1
    m_Data: {fileID: 21300014, guid: ade48f0b4f2fa4c41bd55096f9c65e8d, type: 3}
  - m_RefCount: 1
    m_Data: {fileID: 21300016, guid: ade48f0b4f2fa4c41bd55096f9c65e8d, type: 3}
  - m_RefCount: 1
    m_Data: {fileID: 21300018, guid: ade48f0b4f2fa4c41bd55096f9c65e8d, type: 3}
  - m_RefCount: 1
    m_Data: {fileID: 21300020, guid: ade48f0b4f2fa4c41bd55096f9c65e8d, type: 3}
  - m_RefCount: 1
    m_Data: {fileID: 21300022, guid: ade48f0b4f2fa4c41bd55096f9c65e8d, type: 3}
  - m_RefCount: 1
    m_Data: {fileID: 21300024, guid: ade48f0b4f2fa4c41bd55096f9c65e8d, type: 3}
  - m_RefCount: 1
    m_Data: {fileID: 21300026, guid: ade48f0b4f2fa4c41bd55096f9c65e8d, type: 3}
  - m_RefCount: 1
    m_Data: {fileID: 21300028, guid: ade48f0b4f2fa4c41bd55096f9c65e8d, type: 3}
  - m_RefCount: 1
    m_Data: {fileID: 21300030, guid: ade48f0b4f2fa4c41bd55096f9c65e8d, type: 3}
  - m_RefCount: 1
    m_Data: {fileID: 21300032, guid: ade48f0b4f2fa4c41bd55096f9c65e8d, type: 3}
  - m_RefCount: 1
    m_Data: {fileID: 21300034, guid: ade48f0b4f2fa4c41bd55096f9c65e8d, type: 3}
  - m_RefCount: 1
    m_Data: {fileID: 21300036, guid: ade48f0b4f2fa4c41bd55096f9c65e8d, type: 3}
  - m_RefCount: 1
    m_Data: {fileID: 21300038, guid: ade48f0b4f2fa4c41bd55096f9c65e8d, type: 3}
  - m_RefCount: 1
    m_Data: {fileID: 21300040, guid: ade48f0b4f2fa4c41bd55096f9c65e8d, type: 3}
  - m_RefCount: 1
    m_Data: {fileID: 21300042, guid: ade48f0b4f2fa4c41bd55096f9c65e8d, type: 3}
  - m_RefCount: 1
    m_Data: {fileID: 21300044, guid: ade48f0b4f2fa4c41bd55096f9c65e8d, type: 3}
  - m_RefCount: 1
    m_Data: {fileID: 21300046, guid: ade48f0b4f2fa4c41bd55096f9c65e8d, type: 3}
  - m_RefCount: 1
    m_Data: {fileID: 21300048, guid: ade48f0b4f2fa4c41bd55096f9c65e8d, type: 3}
  - m_RefCount: 1
    m_Data: {fileID: 21300050, guid: ade48f0b4f2fa4c41bd55096f9c65e8d, type: 3}
  - m_RefCount: 1
    m_Data: {fileID: 21300052, guid: ade48f0b4f2fa4c41bd55096f9c65e8d, type: 3}
  - m_RefCount: 1
    m_Data: {fileID: 21300054, guid: ade48f0b4f2fa4c41bd55096f9c65e8d, type: 3}
  - m_RefCount: 1
    m_Data: {fileID: 21300056, guid: ade48f0b4f2fa4c41bd55096f9c65e8d, type: 3}
  - m_RefCount: 1
    m_Data: {fileID: 21300058, guid: ade48f0b4f2fa4c41bd55096f9c65e8d, type: 3}
  m_TileMatrixArray:
  - m_RefCount: 30
    m_Data:
      e00: 1
      e01: 0
      e02: 0
      e03: 0
      e10: 0
      e11: 1
      e12: 0
      e13: 0
      e20: 0
      e21: 0
      e22: 1
      e23: 0
      e30: 0
      e31: 0
      e32: 0
      e33: 1
  m_TileColorArray:
  - m_RefCount: 30
    m_Data: {r: 1, g: 1, b: 1, a: 1}
  m_AnimationFrameRate: 1
  m_Color: {r: 1, g: 1, b: 1, a: 1}
  m_Origin: {x: -10, y: 0, z: 0}
  m_Size: {x: 10, y: 3, z: 1}
  m_TileAnchor: {x: 0.5, y: 0.5, z: 0}
  m_TileOrientation: 0
  m_TileOrientationMatrix:
    e00: 1
    e01: 0
    e02: 0
    e03: 0
    e10: 0
    e11: 1
    e12: 0
    e13: 0
    e20: 0
    e21: 0
    e22: 1
    e23: 0
    e30: 0
    e31: 0
    e32: 0
    e33: 1
  m_TileRefreshArray:
  - serializedVersion: 1
    m_DirtyIndex: 0
  - serializedVersion: 1
    m_DirtyIndex: 0
  - serializedVersion: 1
    m_DirtyIndex: 0
  - serializedVersion: 1
    m_DirtyIndex: 0
  - serializedVersion: 1
    m_DirtyIndex: 0
  - serializedVersion: 1
    m_DirtyIndex: 0
  - serializedVersion: 1
    m_DirtyIndex: 0
  - serializedVersion: 1
    m_DirtyIndex: 0
  - serializedVersion: 1
    m_DirtyIndex: 0
  - serializedVersion: 1
    m_DirtyIndex: 0
  - serializedVersion: 1
    m_DirtyIndex: 0
  - serializedVersion: 1
    m_DirtyIndex: 0
  - serializedVersion: 1
    m_DirtyIndex: 0
  - serializedVersion: 1
    m_DirtyIndex: 0
  - serializedVersion: 1
    m_DirtyIndex: 0
  - serializedVersion: 1
    m_DirtyIndex: 0
  - serializedVersion: 1
    m_DirtyIndex: 0
  - serializedVersion: 1
    m_DirtyIndex: 0
  - serializedVersion: 1
    m_DirtyIndex: 0
  - serializedVersion: 1
    m_DirtyIndex: 0
  - serializedVersion: 1
    m_DirtyIndex: 0
  - serializedVersion: 1
    m_DirtyIndex: 0
  - serializedVersion: 1
    m_DirtyIndex: 0
  - serializedVersion: 1
    m_DirtyIndex: 0
  - serializedVersion: 1
    m_DirtyIndex: 0
  - serializedVersion: 1
    m_DirtyIndex: 0
  - serializedVersion: 1
    m_DirtyIndex: 0
  - serializedVersion: 1
    m_DirtyIndex: 0
  - serializedVersion: 1
    m_DirtyIndex: 0
  - serializedVersion: 1
    m_DirtyIndex: 0
