﻿# Tiled2Unity generated file. Do not modify by hand.
# Wavefront file for 'Level-1_mesh_0012.obj'

# Vertices (Count = 8)
v -405 -84 0
v -406 -84 0
v -406 -83 0
v -405 -83 0
v -406 -84 0
v -407 -84 0
v -407 -83 0
v -406 -83 0

# Texture cooridinates (Count = 6)
vt 0.5 0.8
vt 0.6 0.8
vt 0.6 0.9
vt 0.5 0.9
vt 0.7 0.8
vt 0.7 0.9

# Normal
vn 0 0 -1

# Mesh description
g Level-1_mesh_0012

# Faces
f 1/1/1 2/2/1 3/3/1 4/4/1
f 5/2/1 6/5/1 7/6/1 8/3/1

