﻿# Tiled2Unity generated file. Do not modify by hand.
# Wavefront file for 'Level-1_mesh_0009.obj'

# Vertices (Count = 72)
v -387 -119 0
v -388 -119 0
v -388 -118 0
v -387 -118 0
v -388 -119 0
v -389 -119 0
v -389 -118 0
v -388 -118 0
v -389 -119 0
v -390 -119 0
v -390 -118 0
v -389 -118 0
v -390 -119 0
v -391 -119 0
v -391 -118 0
v -390 -118 0
v -391 -119 0
v -392 -119 0
v -392 -118 0
v -391 -118 0
v -392 -119 0
v -393 -119 0
v -393 -118 0
v -392 -118 0
v -393 -119 0
v -394 -119 0
v -394 -118 0
v -393 -118 0
v -394 -119 0
v -395 -119 0
v -395 -118 0
v -394 -118 0
v -395 -119 0
v -396 -119 0
v -396 -118 0
v -395 -118 0
v -396 -119 0
v -397 -119 0
v -397 -118 0
v -396 -118 0
v -397 -119 0
v -398 -119 0
v -398 -118 0
v -397 -118 0
v -398 -119 0
v -399 -119 0
v -399 -118 0
v -398 -118 0
v -399 -119 0
v -400 -119 0
v -400 -118 0
v -399 -118 0
v -400 -119 0
v -401 -119 0
v -401 -118 0
v -400 -118 0
v -401 -119 0
v -402 -119 0
v -402 -118 0
v -401 -118 0
v -402 -119 0
v -403 -119 0
v -403 -118 0
v -402 -118 0
v -403 -119 0
v -404 -119 0
v -404 -118 0
v -403 -118 0
v -404 -119 0
v -405 -119 0
v -405 -118 0
v -404 -118 0

# Texture cooridinates (Count = 6)
vt 0.5 0.8
vt 0.6 0.8
vt 0.6 0.9
vt 0.5 0.9
vt 0.7 0.8
vt 0.7 0.9

# Normal
vn 0 0 -1

# Mesh description
g Level-1_mesh_0009

# Faces
f 1/1/1 2/2/1 3/3/1 4/4/1
f 5/1/1 6/2/1 7/3/1 8/4/1
f 9/1/1 10/2/1 11/3/1 12/4/1
f 13/1/1 14/2/1 15/3/1 16/4/1
f 17/1/1 18/2/1 19/3/1 20/4/1
f 21/1/1 22/2/1 23/3/1 24/4/1
f 25/1/1 26/2/1 27/3/1 28/4/1
f 29/1/1 30/2/1 31/3/1 32/4/1
f 33/1/1 34/2/1 35/3/1 36/4/1
f 37/1/1 38/2/1 39/3/1 40/4/1
f 41/1/1 42/2/1 43/3/1 44/4/1
f 45/1/1 46/2/1 47/3/1 48/4/1
f 49/1/1 50/2/1 51/3/1 52/4/1
f 53/1/1 54/2/1 55/3/1 56/4/1
f 57/1/1 58/2/1 59/3/1 60/4/1
f 61/1/1 62/2/1 63/3/1 64/4/1
f 65/1/1 66/2/1 67/3/1 68/4/1
f 69/2/1 70/5/1 71/6/1 72/3/1

