{ "frames": {
   "obstacleWallVerticalTile1.ase": {
    "frame": { "x": 0, "y": 0, "w": 8, "h": 32 },
    "rotated": false,
    "trimmed": false,
    "spriteSourceSize": { "x": 0, "y": 0, "w": 8, "h": 32 },
    "sourceSize": { "w": 8, "h": 32 },
    "duration": 100
   }
 },
 "meta": {
  "app": "http://www.aseprite.org/",
  "version": "1.2.2-x64",
  "image": "C:\\Users\\bouergh\\Pictures\\Aseprite\\prod\\obstacleWallVerticalTile1.png",
  "format": "RGBA8888",
  "size": { "w": 8, "h": 32 },
  "scale": "1",
  "frameTags": [
  ],
  "layers": [
   { "name": "Layer 1", "opacity": 255, "blendMode": "normal" }
  ],
  "slices": [
  ]
 }
}
